Chr	Start	End	species	size	color
NC_046679.1	1	32422566	Dpseudo	12	25252
NC_046680.1	1	23510042	Dpseudo	12	25252
NC_046681.1	1	30706867	Dpseudo	12	25252
NC_046682.1	1	1881070	Dpseudo	12	25252
NC_046683.1	1	68158638	Dpseudo	12	25252
