# BUSCO version is: 5.2.2 
# The lineage dataset is: thermoproteales_odb10 (Creation date: 2021-02-23, number of genomes: 13, number of BUSCOs: 404)
# Busco id	Status	Sequence	Gene Start	Gene End	Strand	Score	Length	OrthoDB url	Description
7at2266	Complete	NZ_CP007493.1	1363253	1366642	-	1584.1	966	https://www.orthodb.org/v10?query=7at2266	DNA-directed RNA polymerase subunit B
23at2266	Complete	NZ_CP007493.1	1415368	1417794	-	822.5	617	https://www.orthodb.org/v10?query=23at2266	valine--tRNA ligase
27at2266	Complete	NZ_CP007493.1	1360577	1363243	-	1332.8	780	https://www.orthodb.org/v10?query=27at2266	DNA-directed RNA polymerase subunit
35at2266	Complete	NZ_CP007493.1	1699207	1701411	+	1186.4	646	https://www.orthodb.org/v10?query=35at2266	Elongation factor 2
42at2266	Complete	NZ_CP007493.1	1234392	1237577	+	1240.9	836	https://www.orthodb.org/v10?query=42at2266	isoleucine--tRNA ligase
50at2266	Complete	NZ_CP007493.1	1395343	1397541	-	1080.6	611	https://www.orthodb.org/v10?query=50at2266	ATPase AAA
69at2266	Complete	NZ_CP007493.1	5968	8133	-	1020.5	608	https://www.orthodb.org/v10?query=69at2266	ATPase AAA
78at2266	Complete	NZ_CP007493.1	1309649	1312375	-	1032.0	678	https://www.orthodb.org/v10?query=78at2266	Alanine--tRNA ligase
84at2266	Complete	NZ_CP007493.1	1378358	1380871	+	1099.4	710	https://www.orthodb.org/v10?query=84at2266	DNA polymerase
101at2266	Complete	NZ_CP007493.1	1518242	1522081	+	1229.5	1005	https://www.orthodb.org/v10?query=101at2266	reverse gyrase
106at2266	Complete	NZ_CP007493.1	1280117	1281967	-	647.1	511	https://www.orthodb.org/v10?query=106at2266	aldehyde ferredoxin oxidoreductase
107at2266	Complete	NZ_CP007493.1	1255921	1258614	-	602.7	671	https://www.orthodb.org/v10?query=107at2266	ABC transporter substrate-binding protein
121at2266	Complete	NZ_CP007493.1	1478941	1481331	+	1015.5	684	https://www.orthodb.org/v10?query=121at2266	DNA polymerase
125at2266	Complete	NZ_CP007493.1	1438411	1440219	-	813.5	514	https://www.orthodb.org/v10?query=125at2266	V-type ATP synthase alpha chain
130at2266	Complete	NZ_CP007493.1	204201	206102	-	696.0	497	https://www.orthodb.org/v10?query=130at2266	type IA DNA topoisomerase
132at2266	Complete	NZ_CP007493.1	2314	4707	+	896.7	651	https://www.orthodb.org/v10?query=132at2266	tRNA(Met) cytidine acetyltransferase
141at2266	Complete	NZ_CP007493.1	32084	33916	+	680.1	481	https://www.orthodb.org/v10?query=141at2266	radical SAM protein
160at2266	Complete	NZ_CP007493.1	1035124	1036671	+	669.5	446	https://www.orthodb.org/v10?query=160at2266	glycosyl transferase family 1
164at2266	Complete	NZ_CP007493.1	492647	495118	+	862.9	693	https://www.orthodb.org/v10?query=164at2266	aminopeptidase
167at2266	Complete	NZ_CP007493.1	499161	500714	-	732.6	462	https://www.orthodb.org/v10?query=167at2266	radical SAM protein
177at2266	Complete	NZ_CP007493.1	1400983	1402902	+	753.3	528	https://www.orthodb.org/v10?query=177at2266	beta-CASP ribonuclease aCPSF1
184at2266	Complete	NZ_CP007493.1	79576	81387	+	829.1	507	https://www.orthodb.org/v10?query=184at2266	ATP-dependent DNA ligase
188at2266	Complete	NZ_CP007493.1	63032	65017	-	530.6	529	https://www.orthodb.org/v10?query=188at2266	DUF460 domain-containing protein
197at2266	Complete	NZ_CP007493.1	1197080	1198897	+	710.0	480	https://www.orthodb.org/v10?query=197at2266	Glutamine--fructose-6-phosphate aminotransferase 
203at2266	Complete	NZ_CP007493.1	83439	85265	+	814.8	514	https://www.orthodb.org/v10?query=203at2266	Threonine--tRNA ligase
208at2266	Complete	NZ_CP007493.1	1597167	1599257	-	852.7	581	https://www.orthodb.org/v10?query=208at2266	MCM family protein
210at2266	Complete	NZ_CP007493.1	225874	228105	+	833.8	632	https://www.orthodb.org/v10?query=210at2266	DUF1998 domain-containing protein
229at2266	Complete	NZ_CP007493.1	1741411	1743069	+	750.7	462	https://www.orthodb.org/v10?query=229at2266	thermosome subunit
234at2266	Complete	NZ_CP007493.1	1594925	1597150	-	813.0	592	https://www.orthodb.org/v10?query=234at2266	extensin
238at2266	Complete	NZ_CP007493.1	277532	279160	+	406.6	399	https://www.orthodb.org/v10?query=238at2266	aminopeptidase
251at2266	Complete	NZ_CP007493.1	1436996	1438411	-	669.4	395	https://www.orthodb.org/v10?query=251at2266	V-type ATP synthase beta chain
254at2266	Complete	NZ_CP007493.1	1302018	1303829	-	729.7	504	https://www.orthodb.org/v10?query=254at2266	ribosome biogenesis/translation initiation ATPase RLI
263at2266	Complete	NZ_CP007493.1	1703193	1704896	+	712.8	481	https://www.orthodb.org/v10?query=263at2266	methionine--tRNA ligase
276at2266	Complete	NZ_CP007493.1	439558	441216	+	672.5	483	https://www.orthodb.org/v10?query=276at2266	CTP synthase
285at2266	Complete	NZ_CP007493.1	1372977	1374614	-	821.0	472	https://www.orthodb.org/v10?query=285at2266	thermosome subunit
286at2266	Missing
293at2266	Complete	NZ_CP007493.1	1206179	1208023	+	850.8	523	https://www.orthodb.org/v10?query=293at2266	aldehyde ferredoxin oxidoreductase
317at2266	Complete	NZ_CP007493.1	1722418	1724628	+	692.4	622	https://www.orthodb.org/v10?query=317at2266	peptide transporter
338at2266	Complete	NZ_CP007493.1	1368578	1370098	+	602.4	431	https://www.orthodb.org/v10?query=338at2266	glycine--tRNA ligase
339at2266	Complete	NZ_CP007493.1	95455	97401	+	712.3	553	https://www.orthodb.org/v10?query=339at2266	molybdopterin biosynthesis protein
346at2266	Complete	NZ_CP007493.1	170195	171649	+	529.3	387	https://www.orthodb.org/v10?query=346at2266	Proline--tRNA ligase
353at2266	Complete	NZ_CP007493.1	1593006	1594847	+	760.5	498	https://www.orthodb.org/v10?query=353at2266	translation initiation factor IF-2
354at2266	Complete	NZ_CP007493.1	553749	555695	+	656.1	514	https://www.orthodb.org/v10?query=354at2266	molybdopterin oxidoreductase
359at2266	Complete	NZ_CP007493.1	1726619	1727920	+	701.8	400	https://www.orthodb.org/v10?query=359at2266	Elongation factor 1-alpha
365at2266	Complete	NZ_CP007493.1	17872	19407	-	736.2	448	https://www.orthodb.org/v10?query=365at2266	DNA topoisomerase VI subunit B
367at2266	Complete	NZ_CP007493.1	1090435	1092822	-	659.8	609	https://www.orthodb.org/v10?query=367at2266	copper-translocating P-type ATPase
378at2266	Complete	NZ_CP007493.1	157176	158885	-	701.6	466	https://www.orthodb.org/v10?query=378at2266	glutamate--tRNA ligase
389at2266	Complete	NZ_CP007493.1	134187	136058	+	613.0	484	https://www.orthodb.org/v10?query=389at2266	indolepyruvate ferredoxin oxidoreductase subunit alpha
393at2266	Complete	NZ_CP007493.1	1348808	1350256	-	743.9	439	https://www.orthodb.org/v10?query=393at2266	tRNA-splicing ligase RtcB
399at2266	Complete	NZ_CP007493.1	209175	210296	-	449.1	286	https://www.orthodb.org/v10?query=399at2266	radical SAM protein
412at2266	Complete	NZ_CP007493.1	1615537	1617126	-	627.0	421	https://www.orthodb.org/v10?query=412at2266	ATPase
416at2266	Complete	NZ_CP007493.1	1273485	1274930	+	572.7	399	https://www.orthodb.org/v10?query=416at2266	TldD/PmbA family protein
420at2266	Complete	NZ_CP007493.1	248834	250258	-	594.1	371	https://www.orthodb.org/v10?query=420at2266	cysteine--tRNA ligase
457at2266	Complete	NZ_CP007493.1	673896	675356	+	663.2	419	https://www.orthodb.org/v10?query=457at2266	tRNA uridine(34) 5-carboxymethylaminomethyl modification radical SAM/GNAT enzyme Elp3
475at2266	Complete	NZ_CP007493.1	918566	920167	+	442.0	389	https://www.orthodb.org/v10?query=475at2266	ATP-binding protein
476at2266	Complete	NZ_CP007493.1	1337832	1339037	-	479.4	343	https://www.orthodb.org/v10?query=476at2266	pyridoxal phosphate-dependent aminotransferase
477at2266	Complete	NZ_CP007493.1	1704893	1706194	-	457.5	358	https://www.orthodb.org/v10?query=477at2266	RNA modification enzyme, MiaB family
479at2266	Complete	NZ_CP007493.1	304405	305997	+	630.1	438	https://www.orthodb.org/v10?query=479at2266	Phenylalanine--tRNA ligase alpha subunit
487at2266	Complete	NZ_CP007493.1	1661360	1663357	-	750.5	539	https://www.orthodb.org/v10?query=487at2266	arginine--tRNA ligase
502at2266	Complete	NZ_CP007493.1	1644838	1646169	-	625.4	369	https://www.orthodb.org/v10?query=502at2266	aspartate aminotransferase family protein
507at2266	Complete	NZ_CP007493.1	1105628	1107037	-	448.2	389	https://www.orthodb.org/v10?query=507at2266	dihydrolipoyl dehydrogenase
517at2266	Complete	NZ_CP007493.1	1450550	1452205	+	607.2	411	https://www.orthodb.org/v10?query=517at2266	tRNA-guanine(15) transglycosylase
519at2266	Complete	NZ_CP007493.1	1453809	1455704	-	682.1	526	https://www.orthodb.org/v10?query=519at2266	Glutamyl-tRNA(Gln) amidotransferase subunit E
521at2266	Complete	NZ_CP007493.1	200574	202007	-	554.3	344	https://www.orthodb.org/v10?query=521at2266	Tryptophan synthase beta chain
532at2266	Complete	NZ_CP007493.1	1241586	1243142	-	518.5	340	https://www.orthodb.org/v10?query=532at2266	Alpha-amylase
542at2266	Complete	NZ_CP007493.1	228741	230036	+	627.3	370	https://www.orthodb.org/v10?query=542at2266	asparagine--tRNA ligase
548at2266	Complete	NZ_CP007493.1	41594	42790	-	548.5	342	https://www.orthodb.org/v10?query=548at2266	redox-regulated ATPase YchF
559at2266	Complete	NZ_CP007493.1	1398934	1400205	-	468.3	338	https://www.orthodb.org/v10?query=559at2266	Translation initiation factor 2 subunit gamma
561at2266	Complete	NZ_CP007493.1	1495330	1496688	+	605.8	386	https://www.orthodb.org/v10?query=561at2266	serine--tRNA ligase
586at2266	Missing
607at2266	Complete	NZ_CP007493.1	120020	121105	+	464.2	302	https://www.orthodb.org/v10?query=607at2266	hydroxymethylglutaryl-CoA synthase
626at2266	Complete	NZ_CP007493.1	1065043	1066224	-	546.0	343	https://www.orthodb.org/v10?query=626at2266	pyridine nucleotide-disulfide oxidoreductase
635at2266	Complete	NZ_CP007493.1	1455711	1457072	-	573.5	360	https://www.orthodb.org/v10?query=635at2266	Glutamyl-tRNA(Gln) amidotransferase subunit D
655at2266	Complete	NZ_CP007493.1	1218585	1219889	-	505.4	369	https://www.orthodb.org/v10?query=655at2266	Enolase
668at2266	Complete	NZ_CP007493.1	1286141	1287247	-	668.9	353	https://www.orthodb.org/v10?query=668at2266	fructose 1,6-bisphosphatase
670at2266	Complete	NZ_CP007493.1	1674084	1675331	-	472.7	309	https://www.orthodb.org/v10?query=670at2266	tryptophan--tRNA ligase
674at2266	Complete	NZ_CP007493.1	957468	958472	-	319.9	265	https://www.orthodb.org/v10?query=674at2266	glutamate synthase
687at2266	Complete	NZ_CP007493.1	219309	220634	+	609.9	382	https://www.orthodb.org/v10?query=687at2266	TATA box-binding protein
701at2266	Complete	NZ_CP007493.1	147414	148604	-	403.2	330	https://www.orthodb.org/v10?query=701at2266	DUF521 domain-containing protein
703at2266	Complete	NZ_CP007493.1	1274927	1276267	+	388.0	306	https://www.orthodb.org/v10?query=703at2266	TldD/PmbA family protein
709at2266	Complete	NZ_CP007493.1	1612988	1614262	-	540.2	374	https://www.orthodb.org/v10?query=709at2266	Actin/actin family protein
715at2266	Complete	NZ_CP007493.1	1566379	1567611	+	492.9	328	https://www.orthodb.org/v10?query=715at2266	peptide chain release factor 1
719at2266	Complete	NZ_CP007493.1	360127	362202	+	591.9	519	https://www.orthodb.org/v10?query=719at2266	NADH dehydrogenase
722at2266	Complete	NZ_CP007493.1	1153814	1154926	-	505.8	297	https://www.orthodb.org/v10?query=722at2266	AmmeMemoRadiSam system radical SAM enzyme
725at2266	Complete	NZ_CP007493.1	61759	62979	+	511.2	309	https://www.orthodb.org/v10?query=725at2266	S-adenosylmethionine synthetase
731at2266	Complete	NZ_CP007493.1	102512	103786	-	384.1	317	https://www.orthodb.org/v10?query=731at2266	2,3-bisphosphoglycerate-independent phosphoglycerate mutase
732at2266	Complete	NZ_CP007493.1	1249395	1250738	+	495.9	376	https://www.orthodb.org/v10?query=732at2266	NADH oxidase
744at2266	Complete	NZ_CP007493.1	1013235	1014359	-	275.9	313	https://www.orthodb.org/v10?query=744at2266	myo-inositol-1-phosphate synthase
759at2266	Complete	NZ_CP007493.1	19822	21651	+	684.1	504	https://www.orthodb.org/v10?query=759at2266	Phosphoadenosine phosphosulfate reductase
761at2266	Complete	NZ_CP007493.1	306009	307682	+	580.0	469	https://www.orthodb.org/v10?query=761at2266	phenylalanine--tRNA ligase subunit beta
763at2266	Complete	NZ_CP007493.1	1322354	1323784	-	425.3	399	https://www.orthodb.org/v10?query=763at2266	Protein translocase subunit SecY
768at2266	Complete	NZ_CP007493.1	240914	242140	-	497.9	307	https://www.orthodb.org/v10?query=768at2266	nicotinate phosphoribosyltransferase
770at2266	Complete	NZ_CP007493.1	1706194	1707492	-	678.5	404	https://www.orthodb.org/v10?query=770at2266	Adenosylhomocysteinase
810at2266	Complete	NZ_CP007493.1	1651841	1653073	+	410.9	343	https://www.orthodb.org/v10?query=810at2266	ORC1-type DNA replication protein
818at2266	Complete	NZ_CP007493.1	1749396	1750385	+	455.6	283	https://www.orthodb.org/v10?query=818at2266	Transcription initiation factor IIB
825at2266	Complete	NZ_CP007493.1	1359382	1360584	-	463.1	298	https://www.orthodb.org/v10?query=825at2266	DNA-directed RNA polymerase subunit A''
827at2266	Complete	NZ_CP007493.1	1123705	1124802	-	439.8	309	https://www.orthodb.org/v10?query=827at2266	M42 family peptidase
829at2266	Complete	NZ_CP007493.1	235238	236302	+	364.0	286	https://www.orthodb.org/v10?query=829at2266	S-adenosyl-L-methionine-dependent tRNA 4-demethylwyosine synthase
840at2266	Complete	NZ_CP007493.1	1715266	1716531	+	453.4	343	https://www.orthodb.org/v10?query=840at2266	aspartate--tRNA(Asn) ligase
843at2266	Complete	NZ_CP007493.1	176107	177123	+	442.9	273	https://www.orthodb.org/v10?query=843at2266	Glyoxylate reductase
861at2266	Complete	NZ_CP007493.1	45173	46333	-	375.7	360	https://www.orthodb.org/v10?query=861at2266	Geranylgeranyl reductase
863at2266	Complete	NZ_CP007493.1	1216392	1217633	-	533.7	333	https://www.orthodb.org/v10?query=863at2266	DegT/DnrJ/EryC1/StrS family aminotransferase
882at2266	Complete	NZ_CP007493.1	1564654	1565538	+	362.2	247	https://www.orthodb.org/v10?query=882at2266	succinate--CoA ligase subunit alpha
927at2266	Complete	NZ_CP007493.1	1747334	1748674	-	491.3	367	https://www.orthodb.org/v10?query=927at2266	GTPase
939at2266	Complete	NZ_CP007493.1	1554644	1555918	-	496.7	356	https://www.orthodb.org/v10?query=939at2266	MBL fold metallo-hydrolase
956at2266	Complete	NZ_CP007493.1	16734	17879	-	554.6	306	https://www.orthodb.org/v10?query=956at2266	DNA topoisomerase VI subunit A
958at2266	Complete	NZ_CP007493.1	1345819	1347084	-	512.8	338	https://www.orthodb.org/v10?query=958at2266	Replication factor C large subunit
961at2266	Complete	NZ_CP007493.1	1421881	1423278	-	444.4	369	https://www.orthodb.org/v10?query=961at2266	Pyruvate kinase
972at2266	Complete	NZ_CP007493.1	516541	517668	-	445.1	315	https://www.orthodb.org/v10?query=972at2266	tyrosine--tRNA ligase
983at2266	Complete	NZ_CP007493.1	324224	325297	-	526.8	292	https://www.orthodb.org/v10?query=983at2266	DNA repair and recombination protein RadA
984at2266	Complete	NZ_CP007493.1	1079108	1080223	+	427.3	302	https://www.orthodb.org/v10?query=984at2266	threonylcarbamoyl-AMP synthase
1001at2266	Complete	NZ_CP007493.1	425922	426818	+	282.7	220	https://www.orthodb.org/v10?query=1001at2266	dihydrodipicolinate synthase family protein
1010at2266	Complete	NZ_CP007493.1	1526728	1527747	-	417.8	258	https://www.orthodb.org/v10?query=1010at2266	Probable tRNA pseudouridine synthase B
1012at2266	Complete	NZ_CP007493.1	35978	37276	+	391.0	298	https://www.orthodb.org/v10?query=1012at2266	GTPase HflX
1031at2266	Complete	NZ_CP007493.1	1297857	1299107	-	417.9	319	https://www.orthodb.org/v10?query=1031at2266	glycerate kinase
1042at2266	Complete	NZ_CP007493.1	435786	437093	+	395.4	337	https://www.orthodb.org/v10?query=1042at2266	Dihydroorotase
1059at2266	Complete	NZ_CP007493.1	685133	685729	-	185.3	157	https://www.orthodb.org/v10?query=1059at2266	4Fe-4S dicluster domain-containing protein
1096at2266	Complete	NZ_CP007493.1	269210	270181	-	368.1	281	https://www.orthodb.org/v10?query=1096at2266	TIGR00269 family protein
1112at2266	Complete	NZ_CP007493.1	127081	128310	+	427.6	335	https://www.orthodb.org/v10?query=1112at2266	Phosphoglycerate kinase
1115at2266	Complete	NZ_CP007493.1	247046	248005	+	312.7	265	https://www.orthodb.org/v10?query=1115at2266	ROK family protein
1147at2266	Complete	NZ_CP007493.1	1524416	1525408	-	496.1	303	https://www.orthodb.org/v10?query=1147at2266	tRNA N6-adenosine threonylcarbamoyltransferase
1149at2266	Complete	NZ_CP007493.1	363661	364950	+	455.5	375	https://www.orthodb.org/v10?query=1149at2266	glutamine synthetase
1150at2266	Complete	NZ_CP007493.1	1591197	1592528	+	493.2	356	https://www.orthodb.org/v10?query=1150at2266	DNA primase DnaG
1153at2266	Complete	NZ_CP007493.1	1667553	1668551	-	267.1	266	https://www.orthodb.org/v10?query=1153at2266	Putative RNA methylase
1164at2266	Complete	NZ_CP007493.1	1188949	1190019	-	457.5	301	https://www.orthodb.org/v10?query=1164at2266	TIGR04084 family radical SAM/SPASM domain-containing protein
1181at2266	Complete	NZ_CP007493.1	971	2311	+	484.2	390	https://www.orthodb.org/v10?query=1181at2266	tRNA pseudouridine(13) synthase TruD
1194at2266	Complete	NZ_CP007493.1	1589052	1590359	+	563.8	382	https://www.orthodb.org/v10?query=1194at2266	signal recognition particle protein
1213at2266	Complete	NZ_CP007493.1	1412394	1413857	-	514.1	396	https://www.orthodb.org/v10?query=1213at2266	tRNA 4-thiouridine(8) synthase ThiI
1216at2266	Complete	NZ_CP007493.1	462109	463269	-	381.8	274	https://www.orthodb.org/v10?query=1216at2266	DUF763 domain-containing protein
1217at2266	Complete	NZ_CP007493.1	882947	884161	-	134.4	281	https://www.orthodb.org/v10?query=1217at2266	fucose isomerase
1221at2266	Complete	NZ_CP007493.1	1707570	1708358	-	349.9	225	https://www.orthodb.org/v10?query=1221at2266	S-methyl-5'-thioadenosine phosphorylase
1228at2266	Complete	NZ_CP007493.1	1152810	1153817	+	313.6	255	https://www.orthodb.org/v10?query=1228at2266	thioredoxin-disulfide reductase
1245at2266	Complete	NZ_CP007493.1	1570410	1571522	-	345.8	214	https://www.orthodb.org/v10?query=1245at2266	recombinase RecA
1268at2266	Complete	NZ_CP007493.1	1448826	1450127	+	365.2	305	https://www.orthodb.org/v10?query=1268at2266	tRNA pseudouridine synthase Pus10
1282at2266	Complete	NZ_CP007493.1	1394059	1395099	-	430.6	284	https://www.orthodb.org/v10?query=1282at2266	Flap endonuclease 1
1296at2266	Complete	NZ_CP007493.1	1648201	1649097	+	405.9	258	https://www.orthodb.org/v10?query=1296at2266	2-ketoisovalerate ferredoxin oxidoreductase subunit beta
1306at2266	Complete	NZ_CP007493.1	1253307	1254734	-	418.7	404	https://www.orthodb.org/v10?query=1306at2266	ABC transporter permease
1338at2266	Complete	NZ_CP007493.1	1696913	1698136	-	503.2	343	https://www.orthodb.org/v10?query=1338at2266	threonine ammonia-lyase
1346at2266	Complete	NZ_CP007493.1	1694364	1695719	-	321.1	324	https://www.orthodb.org/v10?query=1346at2266	tRNA(Ile2) 2-agmatinylcytidine synthetase TiaS
1361at2266	Complete	NZ_CP007493.1	206099	207235	-	429.8	316	https://www.orthodb.org/v10?query=1361at2266	phosphate starvation-inducible protein PhoH
1370at2266	Complete	NZ_CP007493.1	1492052	1493359	-	463.7	337	https://www.orthodb.org/v10?query=1370at2266	UbiD family decarboxylase
1371at2266	Complete	NZ_CP007493.1	1538724	1540514	+	542.3	491	https://www.orthodb.org/v10?query=1371at2266	ATP-dependent DNA helicase
1374at2266	Complete	NZ_CP007493.1	1330049	1331092	-	348.2	285	https://www.orthodb.org/v10?query=1374at2266	S-methyl-5-thioribose-1-phosphate isomerase
1389at2266	Complete	NZ_CP007493.1	915188	915847	+	243.7	170	https://www.orthodb.org/v10?query=1389at2266	Peroxiredoxin
1397at2266	Complete	NZ_CP007493.1	1647028	1648200	+	454.9	302	https://www.orthodb.org/v10?query=1397at2266	pyruvate ferredoxin oxidoreductase
1404at2266	Complete	NZ_CP007493.1	1494277	1495236	-	415.8	267	https://www.orthodb.org/v10?query=1404at2266	Ornithine carbamoyltransferase
1443at2266	Complete	NZ_CP007493.1	1604078	1604812	+	327.7	216	https://www.orthodb.org/v10?query=1443at2266	exosome complex exonuclease Rrp41
1444at2266	Complete	NZ_CP007493.1	1657706	1658410	+	255.4	202	https://www.orthodb.org/v10?query=1444at2266	DUF2192 domain-containing protein
1452at2266	Complete	NZ_CP007493.1	948213	948914	-	311.7	213	https://www.orthodb.org/v10?query=1452at2266	acetyl-CoA synthetase
1469at2266	Complete	NZ_CP007493.1	1736828	1737838	+	406.3	297	https://www.orthodb.org/v10?query=1469at2266	radical SAM protein
1485at2266	Complete	NZ_CP007493.1	1498982	1499983	-	363.9	256	https://www.orthodb.org/v10?query=1485at2266	deoxyhypusine synthase
1492at2266	Complete	NZ_CP007493.1	1693196	1694212	-	375.9	287	https://www.orthodb.org/v10?query=1492at2266	Polyprenyl synthetase
1495at2266	Complete	NZ_CP007493.1	985895	986530	-	203.8	193	https://www.orthodb.org/v10?query=1495at2266	cyclase
1516at2266	Complete	NZ_CP007493.1	356361	357374	+	379.3	287	https://www.orthodb.org/v10?query=1516at2266	NADH-quinone oxidoreductase, subunit H
1526at2266	Missing
1529at2266	Complete	NZ_CP007493.1	434336	435289	+	415.3	263	https://www.orthodb.org/v10?query=1529at2266	Aspartate carbamoyltransferase
1541at2266	Complete	NZ_CP007493.1	533015	533830	-	302.3	217	https://www.orthodb.org/v10?query=1541at2266	fructose-bisphosphate aldolase
1562at2266	Complete	NZ_CP007493.1	1601879	1602592	+	335.0	212	https://www.orthodb.org/v10?query=1562at2266	Proteasome subunit alpha
1568at2266	Complete	NZ_CP007493.1	1501688	1502647	+	426.3	273	https://www.orthodb.org/v10?query=1568at2266	DNA cytosine methyltransferase
1579at2266	Complete	NZ_CP007493.1	298545	299456	-	342.5	208	https://www.orthodb.org/v10?query=1579at2266	aldo/keto reductase
1584at2266	Complete	NZ_CP007493.1	129567	130313	-	315.4	205	https://www.orthodb.org/v10?query=1584at2266	transcriptional regulator
1598at2266	Complete	NZ_CP007493.1	1306223	1307335	-	299.3	253	https://www.orthodb.org/v10?query=1598at2266	RNA 3'-terminal phosphate cyclase
1600at2266	Complete	NZ_CP007493.1	1737856	1739136	+	426.2	322	https://www.orthodb.org/v10?query=1600at2266	histidine--tRNA ligase
1610at2266	Complete	NZ_CP007493.1	1291113	1291853	-	239.4	182	https://www.orthodb.org/v10?query=1610at2266	TatD family deoxyribonuclease
1612at2266	Complete	NZ_CP007493.1	1713007	1713747	-	289.7	211	https://www.orthodb.org/v10?query=1612at2266	proliferating cell nuclear antigen (pcna)
1614at2266	Fragmented	NZ_CP007493.1	254372	255049	-	283.7	189	https://www.orthodb.org/v10?query=1614at2266	ATP-binding protein
1616at2266	Complete	NZ_CP007493.1	30878	31972	+	398.8	282	https://www.orthodb.org/v10?query=1616at2266	DUF1512 domain-containing protein
1630at2266	Complete	NZ_CP007493.1	789461	790144	-	270.7	182	https://www.orthodb.org/v10?query=1630at2266	metal-dependent hydrolase
1635at2266	Complete	NZ_CP007493.1	1318875	1319879	-	413.1	280	https://www.orthodb.org/v10?query=1635at2266	50S ribosomal protein L3
1661at2266	Complete	NZ_CP007493.1	1600658	1601806	+	450.6	326	https://www.orthodb.org/v10?query=1661at2266	RNA methyltransferase
1664at2266	Complete	NZ_CP007493.1	207347	208222	+	352.8	256	https://www.orthodb.org/v10?query=1664at2266	endonuclease IV
1670at2266	Complete	NZ_CP007493.1	316505	317179	+	270.1	216	https://www.orthodb.org/v10?query=1670at2266	ATP-binding protein
1675at2266	Fragmented	NZ_CP007493.1	1048869	1049546	-	169.3	145	https://www.orthodb.org/v10?query=1675at2266	glycerophosphodiester phosphodiesterase
1682at2266	Complete	NZ_CP007493.1	1466231	1467502	+	422.0	314	https://www.orthodb.org/v10?query=1682at2266	Pre-mRNA processing ribonucleoprotein,-binding region
1684at2266	Complete	NZ_CP007493.1	721772	722458	+	216.4	175	https://www.orthodb.org/v10?query=1684at2266	uracil phosphoribosyltransferase
1713at2266	Complete	NZ_CP007493.1	1317028	1317774	-	299.3	203	https://www.orthodb.org/v10?query=1713at2266	Ribosomal protein L2
1719at2266	Complete	NZ_CP007493.1	484806	485561	-	274.4	195	https://www.orthodb.org/v10?query=1719at2266	DUF72 domain-containing protein
1728at2266	Complete	NZ_CP007493.1	1137858	1138595	+	312.8	209	https://www.orthodb.org/v10?query=1728at2266	ABC transporter ATP-binding protein
1734at2266	Missing
1743at2266	Complete	NZ_CP007493.1	1270024	1270983	+	353.5	257	https://www.orthodb.org/v10?query=1743at2266	MoxR family ATPase
1748at2266	Complete	NZ_CP007493.1	1548886	1549809	-	307.3	207	https://www.orthodb.org/v10?query=1748at2266	circadian clock protein KaiC
1750at2266	Complete	NZ_CP007493.1	900478	901287	+	307.0	208	https://www.orthodb.org/v10?query=1750at2266	competence damage-inducible protein A
1751at2266	Complete	NZ_CP007493.1	1324995	1325603	-	331.5	182	https://www.orthodb.org/v10?query=1751at2266	Ribosomal protein S5
1752at2266	Complete	NZ_CP007493.1	400373	401224	+	185.7	196	https://www.orthodb.org/v10?query=1752at2266	sulfite exporter TauE/SafE family protein
1753at2266	Complete	NZ_CP007493.1	419755	420606	-	325.9	237	https://www.orthodb.org/v10?query=1753at2266	KaiC domain-containing protein
1755at2266	Complete	NZ_CP007493.1	309131	309964	+	273.8	204	https://www.orthodb.org/v10?query=1755at2266	5'-nucleotidase SurE
1756at2266	Complete	NZ_CP007493.1	1467499	1468200	+	368.6	210	https://www.orthodb.org/v10?query=1756at2266	fibrillarin-like rRNA methylase
1761at2266	Complete	NZ_CP007493.1	1351182	1352276	-	371.5	295	https://www.orthodb.org/v10?query=1761at2266	Isopentenyl-diphosphate delta-isomerase
1778at2266	Complete	NZ_CP007493.1	1417914	1418666	-	254.8	198	https://www.orthodb.org/v10?query=1778at2266	glutaredoxin
1780at2266	Complete	NZ_CP007493.1	65023	65922	-	363.3	263	https://www.orthodb.org/v10?query=1780at2266	serine/threonine protein kinase
1811at2266	Complete	NZ_CP007493.1	1352295	1353164	-	325.4	236	https://www.orthodb.org/v10?query=1811at2266	MEMO1 family
1827at2266	Complete	NZ_CP007493.1	1710791	1711810	-	275.0	212	https://www.orthodb.org/v10?query=1827at2266	DNA primase small subunit
1828at2266	Complete	NZ_CP007493.1	659441	660721	-	369.2	324	https://www.orthodb.org/v10?query=1828at2266	Citrate transporter
1833at2266	Complete	NZ_CP007493.1	889339	890184	+	374.0	228	https://www.orthodb.org/v10?query=1833at2266	Uridine phosphorylase
1834at2266	Complete	NZ_CP007493.1	1684844	1685926	-	325.0	258	https://www.orthodb.org/v10?query=1834at2266	GTP 3',8-cyclase MoaA
1835at2266	Complete	NZ_CP007493.1	43827	44852	-	246.5	249	https://www.orthodb.org/v10?query=1835at2266	gfo/Idh/MocA family oxidoreductase
1836at2266	Complete	NZ_CP007493.1	1711935	1712993	-	299.2	272	https://www.orthodb.org/v10?query=1836at2266	DNA primase
1841at2266	Complete	NZ_CP007493.1	74826	76661	+	476.4	527	https://www.orthodb.org/v10?query=1841at2266	DUF814 domain-containing protein
1862at2266	Complete	NZ_CP007493.1	159188	160036	+	354.2	248	https://www.orthodb.org/v10?query=1862at2266	Methyltransferase
1893at2266	Complete	NZ_CP007493.1	981396	982388	-	381.6	269	https://www.orthodb.org/v10?query=1893at2266	PurM-like, C-terminal domain
1900at2266	Complete	NZ_CP007493.1	570135	570902	-	271.6	211	https://www.orthodb.org/v10?query=1900at2266	ABC transporter
1901at2266	Complete	NZ_CP007493.1	765601	766524	-	322.1	245	https://www.orthodb.org/v10?query=1901at2266	PDZ domain-containing protein
1909at2266	Complete	NZ_CP007493.1	210407	211096	+	285.1	202	https://www.orthodb.org/v10?query=1909at2266	Triosephosphate isomerase
1919at2266	Complete	NZ_CP007493.1	118445	119230	-	283.9	210	https://www.orthodb.org/v10?query=1919at2266	di-trans,poly-cis-decaprenylcistransferase
1926at2266	Complete	NZ_CP007493.1	1565535	1566239	-	182.8	154	https://www.orthodb.org/v10?query=1926at2266	Uridylate kinase
1941at2266	Complete	NZ_CP007493.1	1563539	1564654	+	393.0	313	https://www.orthodb.org/v10?query=1941at2266	Succinate--CoA ligase 
1953at2266	Complete	NZ_CP007493.1	1603383	1604081	+	235.8	189	https://www.orthodb.org/v10?query=1953at2266	RNA-binding protein
1980at2266	Complete	NZ_CP007493.1	333048	333770	+	302.4	207	https://www.orthodb.org/v10?query=1980at2266	alanyl-tRNA editing protein
1983at2266	Complete	NZ_CP007493.1	1469247	1470401	+	397.1	301	https://www.orthodb.org/v10?query=1983at2266	tRNA (guanine-N2)-dimethyltransferase
1987at2266	Complete	NZ_CP007493.1	1312434	1313321	-	308.2	246	https://www.orthodb.org/v10?query=1987at2266	50S ribosomal protein L10
1991at2266	Complete	NZ_CP007493.1	1746186	1747268	-	356.1	230	https://www.orthodb.org/v10?query=1991at2266	DUF373 domain-containing protein
1992at2266	Complete	NZ_CP007493.1	1375319	1375888	+	307.0	182	https://www.orthodb.org/v10?query=1992at2266	TATA-box-binding protein
2009at2266	Complete	NZ_CP007493.1	1313318	1313995	-	258.5	181	https://www.orthodb.org/v10?query=2009at2266	Ribosomal protein L1
2017at2266	Complete	NZ_CP007493.1	1375958	1376407	+	235.1	139	https://www.orthodb.org/v10?query=2017at2266	ribosomal-protein-alanine N-acetyltransferase
2053at2266	Complete	NZ_CP007493.1	1348148	1348750	-	339.7	187	https://www.orthodb.org/v10?query=2053at2266	30S ribosomal protein S7
2062at2266	Complete	NZ_CP007493.1	1542634	1543251	+	233.2	169	https://www.orthodb.org/v10?query=2062at2266	30S ribosomal protein S3
2072at2266	Complete	NZ_CP007493.1	1325647	1326237	-	259.0	175	https://www.orthodb.org/v10?query=2072at2266	50S ribosomal protein L18
2100at2266	Complete	NZ_CP007493.1	1237574	1238284	-	298.2	202	https://www.orthodb.org/v10?query=2100at2266	DUF72 domain-containing protein
2141at2266	Complete	NZ_CP007493.1	1353226	1353870	-	315.1	187	https://www.orthodb.org/v10?query=2141at2266	30S ribosomal protein S2
2152at2266	Complete	NZ_CP007493.1	57574	58356	-	168.0	183	https://www.orthodb.org/v10?query=2152at2266	A8MA02_CALMQ
2168at2266	Complete	NZ_CP007493.1	1278374	1279300	-	329.0	265	https://www.orthodb.org/v10?query=2168at2266	Carbamate kinase
2172at2266	Complete	NZ_CP007493.1	212348	213439	-	314.7	276	https://www.orthodb.org/v10?query=2172at2266	DUF354 domain-containing protein
2181at2266	Complete	NZ_CP007493.1	1328296	1329051	-	254.1	199	https://www.orthodb.org/v10?query=2181at2266	30S ribosomal protein S4e
2188at2266	Complete	NZ_CP007493.1	1088244	1089038	+	316.7	221	https://www.orthodb.org/v10?query=2188at2266	Short-chain dehydrogenase
2208at2266	Complete	NZ_CP007493.1	1522086	1522613	-	193.9	148	https://www.orthodb.org/v10?query=2208at2266	Nicotinamide-nucleotide adenylyltransferase
2234at2266	Complete	NZ_CP007493.1	1089065	1089823	+	293.1	216	https://www.orthodb.org/v10?query=2234at2266	HesA/MoeB/ThiF family protein
2248at2266	Complete	NZ_CP007493.1	1709101	1709772	+	298.5	184	https://www.orthodb.org/v10?query=2248at2266	phosphoribosyltransferase
2250at2266	Complete	NZ_CP007493.1	1532786	1533553	-	309.1	224	https://www.orthodb.org/v10?query=2250at2266	tRNA (adenine-N1)-methyltransferase
2262at2266	Complete	NZ_CP007493.1	1462370	1463155	+	272.4	211	https://www.orthodb.org/v10?query=2262at2266	GTPase
2268at2266	Complete	NZ_CP007493.1	183226	184050	+	228.3	220	https://www.orthodb.org/v10?query=2268at2266	DUF92 domain-containing protein
2270at2266	Duplicated	NZ_CP007493.1	537798	538622	+	262.0	249	https://www.orthodb.org/v10?query=2270at2266	Sec-independent protein translocase protein TatC
2270at2266	Duplicated	NZ_CP007493.1	535583	536416	+	260.6	250	https://www.orthodb.org/v10?query=2270at2266	Sec-independent protein translocase protein TatC
2271at2266	Complete	NZ_CP007493.1	1604814	1605656	+	272.0	218	https://www.orthodb.org/v10?query=2271at2266	Exosome complex component Rrp42
2277at2266	Complete	NZ_CP007493.1	1357205	1358077	-	239.1	216	https://www.orthodb.org/v10?query=2277at2266	DNA-directed RNA polymerase subunit D
2282at2266	Complete	NZ_CP007493.1	1560762	1561547	+	320.9	209	https://www.orthodb.org/v10?query=2282at2266	serine protein kinase RIO
2294at2266	Complete	NZ_CP007493.1	1718610	1719380	+	306.6	219	https://www.orthodb.org/v10?query=2294at2266	Geranylgeranylglyceryl phosphate synthase
2320at2266	Complete	NZ_CP007493.1	1602667	1603374	+	269.5	201	https://www.orthodb.org/v10?query=2320at2266	ribosome assembly factor SBDS
2339at2266	Complete	NZ_CP007493.1	1459934	1461304	-	348.7	330	https://www.orthodb.org/v10?query=2339at2266	CCA-adding enzyme
2346at2266	Complete	NZ_CP007493.1	1753258	1754187	+	288.2	213	https://www.orthodb.org/v10?query=2346at2266	Methionine aminopeptidase
2357at2266	Complete	NZ_CP007493.1	1725061	1725861	-	308.5	219	https://www.orthodb.org/v10?query=2357at2266	Translation initiation factor 2, alpha subunit
2363at2266	Complete	NZ_CP007493.1	1554124	1554711	+	169.2	143	https://www.orthodb.org/v10?query=2363at2266	Heat shock protein Hsp20
2368at2266	Complete	NZ_CP007493.1	190978	191916	-	355.3	265	https://www.orthodb.org/v10?query=2368at2266	asparaginase
2371at2266	Complete	NZ_CP007493.1	1663921	1665387	-	378.6	387	https://www.orthodb.org/v10?query=2371at2266	RNA-binding protein AU-1
2379at2266	Complete	NZ_CP007493.1	1507793	1508791	+	270.4	241	https://www.orthodb.org/v10?query=2379at2266	Uncharacterised protein family UPF0282, hydrolase, metallo-beta-lactamase
2402at2266	Complete	NZ_CP007493.1	1732211	1732831	+	250.5	169	https://www.orthodb.org/v10?query=2402at2266	30S ribosomal protein S3ae
2403at2266	Missing
2413at2266	Complete	NZ_CP007493.1	77813	78454	+	221.0	175	https://www.orthodb.org/v10?query=2413at2266	TIGR00296 family protein
2422at2266	Complete	NZ_CP007493.1	1528468	1529514	+	301.3	250	https://www.orthodb.org/v10?query=2422at2266	radical SAM protein
2439at2266	Complete	NZ_CP007493.1	208174	209196	-	270.6	279	https://www.orthodb.org/v10?query=2439at2266	diphthamide biosynthesis protein
2493at2266	Complete	NZ_CP007493.1	1657150	1657662	+	267.9	152	https://www.orthodb.org/v10?query=2493at2266	50S ribosomal protein L10e
2494at2266	Complete	NZ_CP007493.1	280909	281895	-	379.1	276	https://www.orthodb.org/v10?query=2494at2266	Fis family transcriptional regulator
2508at2266	Complete	NZ_CP007493.1	1544172	1544597	+	157.7	102	https://www.orthodb.org/v10?query=2508at2266	50S ribosomal protein L14
2529at2266	Complete	NZ_CP007493.1	177163	177954	+	312.0	232	https://www.orthodb.org/v10?query=2529at2266	GTPase RsgA
2538at2266	Complete	NZ_CP007493.1	1247272	1247787	-	189.4	140	https://www.orthodb.org/v10?query=2538at2266	dCTP deaminase
2539at2266	Complete	NZ_CP007493.1	82057	82965	+	266.5	246	https://www.orthodb.org/v10?query=2539at2266	carbohydrate kinase family protein
2561at2266	Complete	NZ_CP007493.1	1503962	1504339	+	129.2	105	https://www.orthodb.org/v10?query=2561at2266	30S ribosomal protein S6e
2562at2266	Complete	NZ_CP007493.1	403154	403813	-	249.9	179	https://www.orthodb.org/v10?query=2562at2266	succinate dehydrogenase iron-sulfur subunit
2563at2266	Complete	NZ_CP007493.1	1540515	1541123	-	249.2	152	https://www.orthodb.org/v10?query=2563at2266	6-phospho-3-hexuloisomerase
2565at2266	Complete	NZ_CP007493.1	1497945	1498967	-	255.4	227	https://www.orthodb.org/v10?query=2565at2266	Glycosyl transferase family 4
2570at2266	Complete	NZ_CP007493.1	1066495	1066902	-	187.6	117	https://www.orthodb.org/v10?query=2570at2266	peroxiredoxin
2594at2266	Complete	NZ_CP007493.1	296233	297150	+	285.8	242	https://www.orthodb.org/v10?query=2594at2266	CBS domain-containing protein
2601at2266	Complete	NZ_CP007493.1	1341177	1341653	-	182.4	130	https://www.orthodb.org/v10?query=2601at2266	30S ribosomal protein S13
2603at2266	Duplicated	NZ_CP007493.1	530712	531149	-	109.5	86	https://www.orthodb.org/v10?query=2603at2266	YkgJ family cysteine cluster protein
2603at2266	Duplicated	NZ_CP007493.1	1208703	1209113	+	93.9	83	https://www.orthodb.org/v10?query=2603at2266	YkgJ family cysteine cluster protein
2617at2266	Complete	NZ_CP007493.1	1478243	1478860	+	237.7	164	https://www.orthodb.org/v10?query=2617at2266	Proteasome subunit beta
2618at2266	Complete	NZ_CP007493.1	1067020	1067769	-	235.5	193	https://www.orthodb.org/v10?query=2618at2266	creatininase
2627at2266	Complete	NZ_CP007493.1	1692383	1693150	-	262.3	229	https://www.orthodb.org/v10?query=2627at2266	aspartate/glutamate/uridylate kinase
2634at2266	Complete	NZ_CP007493.1	35505	35975	+	137.0	117	https://www.orthodb.org/v10?query=2634at2266	TIGR00270 family protein
2641at2266	Complete	NZ_CP007493.1	1318067	1318867	-	339.9	233	https://www.orthodb.org/v10?query=2641at2266	50S ribosomal protein L4
2643at2266	Complete	NZ_CP007493.1	1509765	1510673	-	265.5	207	https://www.orthodb.org/v10?query=2643at2266	Signal recognition particle receptor FtsY
2661at2266	Complete	NZ_CP007493.1	1212796	1213371	+	235.3	155	https://www.orthodb.org/v10?query=2661at2266	cysteine hydrolase
2662at2266	Complete	NZ_CP007493.1	199557	200525	-	296.2	275	https://www.orthodb.org/v10?query=2662at2266	Mevalonate kinase
2673at2266	Complete	NZ_CP007493.1	937968	938747	-	148.7	160	https://www.orthodb.org/v10?query=2673at2266	alpha/beta hydrolase
2676at2266	Complete	NZ_CP007493.1	1209100	1209780	-	206.8	171	https://www.orthodb.org/v10?query=2676at2266	Riboflavin kinase
2678at2266	Complete	NZ_CP007493.1	412288	413157	+	207.4	229	https://www.orthodb.org/v10?query=2678at2266	DUF340 domain-containing protein
2689at2266	Complete	NZ_CP007493.1	1400321	1400917	+	269.2	174	https://www.orthodb.org/v10?query=2689at2266	proteasome subunit beta
2712at2266	Complete	NZ_CP007493.1	1476554	1477105	-	226.1	146	https://www.orthodb.org/v10?query=2712at2266	Ribosomal protein L15e
2743at2266	Complete	NZ_CP007493.1	101365	101973	+	193.7	154	https://www.orthodb.org/v10?query=2743at2266	DUF998 domain-containing protein
2753at2266	Complete	NZ_CP007493.1	1231651	1232373	-	111.9	132	https://www.orthodb.org/v10?query=2753at2266	phosphohydrolase
2760at2266	Complete	NZ_CP007493.1	1709824	1710783	+	266.9	245	https://www.orthodb.org/v10?query=2760at2266	Putative mRNA 3-end processing factor
2761at2266	Complete	NZ_CP007493.1	1579832	1580875	-	285.0	278	https://www.orthodb.org/v10?query=2761at2266	DUF711 domain-containing protein
2762at2266	Complete	NZ_CP007493.1	146352	146993	-	232.9	155	https://www.orthodb.org/v10?query=2762at2266	uracil-DNA glycosylase
2764at2266	Complete	NZ_CP007493.1	218013	218714	-	239.8	193	https://www.orthodb.org/v10?query=2764at2266	ERCC4 domain protein
2778at2266	Complete	NZ_CP007493.1	1305431	1306219	+	247.1	203	https://www.orthodb.org/v10?query=2778at2266	S-adenosyl-l-methionine hydroxide adenosyltransferase, C-terminal
2795at2266	Complete	NZ_CP007493.1	501094	502143	-	380.1	299	https://www.orthodb.org/v10?query=2795at2266	glycerol-1-phosphate dehydrogenase
2838at2266	Complete	NZ_CP007493.1	1327175	1327564	-	167.0	113	https://www.orthodb.org/v10?query=2838at2266	30S ribosomal protein S8
2839at2266	Complete	NZ_CP007493.1	1533655	1534146	+	208.5	138	https://www.orthodb.org/v10?query=2839at2266	30S ribosomal protein S19e
2841at2266	Complete	NZ_CP007493.1	1695725	1696300	-	229.7	163	https://www.orthodb.org/v10?query=2841at2266	50S ribosomal protein L6
2863at2266	Complete	NZ_CP007493.1	1562989	1563435	-	225.2	125	https://www.orthodb.org/v10?query=2863at2266	30S ribosomal protein S15
2884at2266	Complete	NZ_CP007493.1	1329035	1329433	-	181.1	116	https://www.orthodb.org/v10?query=2884at2266	50S ribosomal protein L24
2910at2266	Complete	NZ_CP007493.1	42	539	+	230.1	145	https://www.orthodb.org/v10?query=2910at2266	adenosine monophosphate-protein transferase
2921at2266	Complete	NZ_CP007493.1	1327748	1328296	-	250.1	162	https://www.orthodb.org/v10?query=2921at2266	Ribosomal protein L5
2930at2266	Complete	NZ_CP007493.1	1751226	1751909	+	257.3	196	https://www.orthodb.org/v10?query=2930at2266	DUF357 domain-containing protein
2949at2266	Complete	NZ_CP007493.1	1691904	1692338	-	150.9	112	https://www.orthodb.org/v10?query=2949at2266	YjbQ family protein
2996at2266	Complete	NZ_CP007493.1	1470388	1470819	-	175.6	121	https://www.orthodb.org/v10?query=2996at2266	Translation initiation factor 2 subunit beta
2998at2266	Complete	NZ_CP007493.1	1284226	1284795	-	246.4	154	https://www.orthodb.org/v10?query=2998at2266	ADP-ribose-binding protein
2999at2266	Complete	NZ_CP007493.1	1719683	1720537	+	219.0	219	https://www.orthodb.org/v10?query=2999at2266	UbiA prenyltransferase
3001at2266	Complete	NZ_CP007493.1	1477154	1478179	-	310.1	244	https://www.orthodb.org/v10?query=3001at2266	GTP-binding protein
3004at2266	Fragmented	NZ_CP007493.1	1163055	1163444	-	133.1	110	https://www.orthodb.org/v10?query=3004at2266	LOG family protein
3015at2266	Complete	NZ_CP007493.1	136636	137760	-	205.8	270	https://www.orthodb.org/v10?query=3015at2266	NAD(P)/FAD-dependent oxidoreductase
3036at2266	Complete	NZ_CP007493.1	1500261	1500848	-	222.6	163	https://www.orthodb.org/v10?query=3036at2266	DNA-directed RNA polymerase
3040at2266	Complete	NZ_CP007493.1	578616	579221	+	213.3	165	https://www.orthodb.org/v10?query=3040at2266	small-conductance mechanosensitive channel-like protein
3044at2266	Complete	NZ_CP007493.1	1324519	1324989	-	169.2	137	https://www.orthodb.org/v10?query=3044at2266	50S ribosomal protein L30
3067at2266	Complete	NZ_CP007493.1	475069	475791	+	269.0	211	https://www.orthodb.org/v10?query=3067at2266	FeS assembly ATPase SufC
3076at2266	Complete	NZ_CP007493.1	1279429	1279725	-	125.8	85	https://www.orthodb.org/v10?query=3076at2266	molybdenum-pterin-binding protein
3094at2266	Complete	NZ_CP007493.1	1331116	1331745	-	217.7	163	https://www.orthodb.org/v10?query=3094at2266	DUF99 domain-containing protein
3105at2266	Complete	NZ_CP007493.1	1210331	1210897	+	147.4	109	https://www.orthodb.org/v10?query=3105at2266	pentalenene synthase
3106at2266	Complete	NZ_CP007493.1	1418724	1419422	-	241.3	192	https://www.orthodb.org/v10?query=3106at2266	Ribose-5-phosphate isomerase A
3112at2266	Complete	NZ_CP007493.1	1696534	1696911	-	140.1	97	https://www.orthodb.org/v10?query=3112at2266	RidA family protein
3117at2266	Complete	NZ_CP007493.1	122281	122685	+	145.3	110	https://www.orthodb.org/v10?query=3117at2266	cobalt transporter ApaG
3124at2266	Complete	NZ_CP007493.1	1323787	1324251	-	158.7	123	https://www.orthodb.org/v10?query=3124at2266	50S ribosomal protein L15
3131at2266	Complete	NZ_CP007493.1	1427547	1428425	+	223.4	204	https://www.orthodb.org/v10?query=3131at2266	Bis(5'nucleosyl)-tetraphosphatase, ApaH
3146at2266	Complete	NZ_CP007493.1	1358084	1358527	-	159.4	81	https://www.orthodb.org/v10?query=3146at2266	30S ribosomal protein S12
3165at2266	Complete	NZ_CP007493.1	259742	260203	-	145.5	101	https://www.orthodb.org/v10?query=3165at2266	Universally conserved protein
3179at2266	Complete	NZ_CP007493.1	1751906	1752586	-	236.4	190	https://www.orthodb.org/v10?query=3179at2266	Endonuclease V
3195at2266	Complete	NZ_CP007493.1	1504423	1504743	+	142.6	82	https://www.orthodb.org/v10?query=3195at2266	Translation initiation factor 1A
3196at2266	Complete	NZ_CP007493.1	83044	83385	+	85.4	77	https://www.orthodb.org/v10?query=3196at2266	G4RLQ2_THETK
3198at2266	Complete	NZ_CP007493.1	1356797	1357159	-	130.6	101	https://www.orthodb.org/v10?query=3198at2266	50S ribosomal protein L18e
3200at2266	Complete	NZ_CP007493.1	1542170	1542625	+	184.1	129	https://www.orthodb.org/v10?query=3200at2266	50S ribosomal protein L22
3205at2266	Complete	NZ_CP007493.1	1356324	1356782	-	217.3	142	https://www.orthodb.org/v10?query=3205at2266	50S ribosomal protein L13
3225at2266	Complete	NZ_CP007493.1	1314515	1314940	-	191.1	121	https://www.orthodb.org/v10?query=3225at2266	30S ribosomal protein S19
3226at2266	Complete	NZ_CP007493.1	1496759	1497157	+	216.9	124	https://www.orthodb.org/v10?query=3226at2266	Translation initiation factor 5A
3236at2266	Complete	NZ_CP007493.1	1714190	1714756	-	243.8	152	https://www.orthodb.org/v10?query=3236at2266	cytidylate kinase
3239at2266	Complete	NZ_CP007493.1	477197	478291	+	331.9	326	https://www.orthodb.org/v10?query=3239at2266	SufBD protein
3246at2266	Complete	NZ_CP007493.1	177937	178818	-	273.4	225	https://www.orthodb.org/v10?query=3246at2266	N-glycosylase/DNA lyase
3262at2266	Complete	NZ_CP007493.1	1340665	1341174	-	193.1	130	https://www.orthodb.org/v10?query=3262at2266	30S ribosomal protein S4
3264at2266	Complete	NZ_CP007493.1	891410	891958	-	199.6	159	https://www.orthodb.org/v10?query=3264at2266	flavin reductase family protein
3268at2266	Complete	NZ_CP007493.1	1605710	1605982	+	156.9	83	https://www.orthodb.org/v10?query=3268at2266	50S ribosomal protein L37ae
3273at2266	Complete	NZ_CP007493.1	310117	310680	+	154.8	141	https://www.orthodb.org/v10?query=3273at2266	nucleoside triphosphatase
3277at2266	Complete	NZ_CP007493.1	193444	194091	+	186.6	165	https://www.orthodb.org/v10?query=3277at2266	ribonuclease HII
3278at2266	Complete	NZ_CP007493.1	1326688	1327185	-	166.6	108	https://www.orthodb.org/v10?query=3278at2266	50S ribosomal protein L32e
3292at2266	Complete	NZ_CP007493.1	156792	157175	+	166.7	117	https://www.orthodb.org/v10?query=3292at2266	Trm112-like
3302at2266	Complete	NZ_CP007493.1	1543831	1544160	+	154.3	103	https://www.orthodb.org/v10?query=3302at2266	30S ribosomal protein S17
3316at2266	Complete	NZ_CP007493.1	435295	435768	+	207.0	132	https://www.orthodb.org/v10?query=3316at2266	aspartate carbamoyltransferase regulatory subunit
3322at2266	Complete	NZ_CP007493.1	1708438	1708995	-	190.0	151	https://www.orthodb.org/v10?query=3322at2266	tRNA intron endonuclease
3331at2266	Complete	NZ_CP007493.1	1458726	1459190	+	194.3	132	https://www.orthodb.org/v10?query=3331at2266	AsnC family transcriptional regulator
3340at2266	Complete	NZ_CP007493.1	1355919	1356317	-	201.5	128	https://www.orthodb.org/v10?query=3340at2266	30S ribosomal protein S9
3346at2266	Complete	NZ_CP007493.1	1398403	1398894	-	108.6	127	https://www.orthodb.org/v10?query=3346at2266	Uncharacterised protein family UPF0179
3365at2266	Complete	NZ_CP007493.1	261424	261993	+	190.1	148	https://www.orthodb.org/v10?query=3365at2266	non-canonical purine NTP pyrophosphatase
3366at2266	Complete	NZ_CP007493.1	1404043	1404588	+	187.1	149	https://www.orthodb.org/v10?query=3366at2266	molybdenum cofactor biosynthesis protein
3385at2266	Complete	NZ_CP007493.1	1523706	1524431	-	174.1	174	https://www.orthodb.org/v10?query=3385at2266	Kae1-associated kinase Bud32
3396at2266	Complete	NZ_CP007493.1	1230333	1230926	-	209.1	170	https://www.orthodb.org/v10?query=3396at2266	tRNA(Phe) 7-((3-amino-3-carboxypropyl)-4-demethylwyosine(37)-N(4))-methyltransferase
3408at2266	Complete	NZ_CP007493.1	147007	147411	-	92.9	85	https://www.orthodb.org/v10?query=3408at2266	DUF126 domain-containing protein
3416at2266	Complete	NZ_CP007493.1	433766	434287	+	201.4	156	https://www.orthodb.org/v10?query=3416at2266	Orotate phosphoribosyltransferase
3454at2266	Complete	NZ_CP007493.1	1728514	1729059	-	207.0	165	https://www.orthodb.org/v10?query=3454at2266	Zinc finger, ZPR1-type
3459at2266	Complete	NZ_CP007493.1	1393583	1394074	-	151.6	118	https://www.orthodb.org/v10?query=3459at2266	DUF371 domain-containing protein
3489at2266	Complete	NZ_CP007493.1	1214297	1214767	-	179.0	126	https://www.orthodb.org/v10?query=3489at2266	bifunctional nuclease family protein
3490at2266	Complete	NZ_CP007493.1	1402906	1403439	-	156.1	140	https://www.orthodb.org/v10?query=3490at2266	RNA-binding protein
3492at2266	Complete	NZ_CP007493.1	1214764	1215423	-	165.1	164	https://www.orthodb.org/v10?query=3492at2266	A1RU13_PYRIL
3494at2266	Complete	NZ_CP007493.1	181477	181995	+	152.2	142	https://www.orthodb.org/v10?query=3494at2266	F2L3E2_THEU7
3503at2266	Complete	NZ_CP007493.1	1727990	1728298	+	137.6	88	https://www.orthodb.org/v10?query=3503at2266	30S ribosomal protein S10
3515at2266	Missing
3521at2266	Complete	NZ_CP007493.1	1665772	1666458	+	226.4	192	https://www.orthodb.org/v10?query=3521at2266	ribosome biogenesis protein
3531at2266	Complete	NZ_CP007493.1	1568223	1568876	+	163.8	150	https://www.orthodb.org/v10?query=3531at2266	Exosome complex component Csl4
3539at2266	Complete	NZ_CP007493.1	1450139	1450447	-	144.3	88	https://www.orthodb.org/v10?query=3539at2266	50S ribosomal protein L21e
3544at2266	Complete	NZ_CP007493.1	1744152	1745111	-	233.1	243	https://www.orthodb.org/v10?query=3544at2266	Ribonuclease Z
3571at2266	Complete	NZ_CP007493.1	1448190	1448816	+	196.3	161	https://www.orthodb.org/v10?query=3571at2266	DUF655 domain-containing protein
3576at2266	Complete	NZ_CP007493.1	1447116	1447463	+	57.0	77	https://www.orthodb.org/v10?query=3576at2266	DNA-directed RNA polymerase, subunit RPB8
3593at2266	Complete	NZ_CP007493.1	1586952	1587263	+	123.1	87	https://www.orthodb.org/v10?query=3593at2266	translation initiation factor
3600at2266	Complete	NZ_CP007493.1	37868	38383	+	146.6	131	https://www.orthodb.org/v10?query=3600at2266	transcription factor
3605at2266	Complete	NZ_CP007493.1	1326230	1326682	-	184.4	129	https://www.orthodb.org/v10?query=3605at2266	50S ribosomal protein L19e
3606at2266	Complete	NZ_CP007493.1	1453128	1453514	+	141.9	106	https://www.orthodb.org/v10?query=3606at2266	30S ribosomal protein S8e
3608at2266	Complete	NZ_CP007493.1	1461291	1461854	-	170.4	145	https://www.orthodb.org/v10?query=3608at2266	RNA 2',3'-cyclic phosphodiesterase
3616at2266	Complete	NZ_CP007493.1	1060520	1060807	+	127.7	77	https://www.orthodb.org/v10?query=3616at2266	ATP-cone domain protein
3617at2266	Complete	NZ_CP007493.1	1212053	1212379	-	139.1	92	https://www.orthodb.org/v10?query=3617at2266	Methionyl-tRNA synthetase, beta subunit
3637at2266	Complete	NZ_CP007493.1	77338	77832	+	152.6	127	https://www.orthodb.org/v10?query=3637at2266	DNA-binding protein
3639at2266	Complete	NZ_CP007493.1	1151783	1152310	+	155.2	146	https://www.orthodb.org/v10?query=3639at2266	class IV adenylate cyclase
3656at2266	Complete	NZ_CP007493.1	1534787	1535095	+	114.7	72	https://www.orthodb.org/v10?query=3656at2266	50S ribosomal protein L31e
3667at2266	Complete	NZ_CP007493.1	587	949	+	121.6	102	https://www.orthodb.org/v10?query=3667at2266	Peptidyl-tRNA hydrolase
3682at2266	Complete	NZ_CP007493.1	1600203	1600607	-	201.5	122	https://www.orthodb.org/v10?query=3682at2266	50S ribosomal protein L7ae
3689at2266	Complete	NZ_CP007493.1	1663387	1663887	-	131.7	105	https://www.orthodb.org/v10?query=3689at2266	HIT domain-containing protein
3695at2266	Complete	NZ_CP007493.1	1743135	1743719	+	147.7	143	https://www.orthodb.org/v10?query=3695at2266	dephospho-CoA kinase
3700at2266	Complete	NZ_CP007493.1	1358619	1359068	-	162.8	119	https://www.orthodb.org/v10?query=3700at2266	Probable transcription termination protein NusA
3701at2266	Complete	NZ_CP007493.1	574513	575406	-	160.6	218	https://www.orthodb.org/v10?query=3701at2266	phosphate uptake regulator PhoU
3739at2266	Complete	NZ_CP007493.1	1527765	1528061	-	153.1	87	https://www.orthodb.org/v10?query=3739at2266	50S ribosomal protein L14e
3788at2266	Complete	NZ_CP007493.1	114556	115260	+	166.0	196	https://www.orthodb.org/v10?query=3788at2266	phosphatidate cytidylyltransferase
3789at2266	Complete	NZ_CP007493.1	1459206	1459976	-	198.3	186	https://www.orthodb.org/v10?query=3789at2266	serine/threonine protein kinase
3796at2266	Complete	NZ_CP007493.1	1726196	1726483	-	116.2	81	https://www.orthodb.org/v10?query=3796at2266	50S ribosomal protein L44e
3816at2266	Complete	NZ_CP007493.1	1260811	1261425	-	201.6	164	https://www.orthodb.org/v10?query=3816at2266	endonuclease
3833at2266	Complete	NZ_CP007493.1	1658489	1658782	+	152.4	89	https://www.orthodb.org/v10?query=3833at2266	Ribosomal protein S26E
3864at2266	Complete	NZ_CP007493.1	1646771	1647031	+	128.6	72	https://www.orthodb.org/v10?query=3864at2266	4Fe-4S dicluster domain-containing protein
3866at2266	Complete	NZ_CP007493.1	255326	255880	-	175.2	161	https://www.orthodb.org/v10?query=3866at2266	peptidase M50
3880at2266	Complete	NZ_CP007493.1	315993	316421	+	155.6	107	https://www.orthodb.org/v10?query=3880at2266	HIT family protein
3914at2266	Complete	NZ_CP007493.1	1713839	1714168	-	120.3	82	https://www.orthodb.org/v10?query=3914at2266	transcription factor S
3920at2266	Complete	NZ_CP007493.1	136065	136655	+	177.3	139	https://www.orthodb.org/v10?query=3920at2266	indolepyruvate ferredoxin oxidoreductase
3923at2266	Complete	NZ_CP007493.1	1461847	1462260	-	136.9	110	https://www.orthodb.org/v10?query=3923at2266	MarR family transcriptional regulator
3935at2266	Complete	NZ_CP007493.1	1366639	1366881	-	121.4	71	https://www.orthodb.org/v10?query=3935at2266	DNA-directed RNA polymerase subunit H
3948at2266	Complete	NZ_CP007493.1	1599900	1600139	-	129.0	66	https://www.orthodb.org/v10?query=3948at2266	30S ribosomal protein S28e
3975at2266	Complete	NZ_CP007493.1	1359065	1359376	-	141.7	90	https://www.orthodb.org/v10?query=3975at2266	50S ribosomal protein L30e
4015at2266	Complete	NZ_CP007493.1	93966	94247	+	130.9	84	https://www.orthodb.org/v10?query=4015at2266	acylphosphatase
4016at2266	Complete	NZ_CP007493.1	1729107	1729499	+	110.4	99	https://www.orthodb.org/v10?query=4016at2266	Sjogrens syndrome scleroderma autoantigen 1
4048at2266	Complete	NZ_CP007493.1	1503393	1503614	-	90.6	50	https://www.orthodb.org/v10?query=4048at2266	small nuclear ribonucleoprotein (Sm)
4063at2266	Complete	NZ_CP007493.1	217674	217979	-	115.8	83	https://www.orthodb.org/v10?query=4063at2266	metal-sulfur cluster assembly factor
4104at2266	Complete	NZ_CP007493.1	1512073	1512729	+	160.6	137	https://www.orthodb.org/v10?query=4104at2266	CDP-archaeol synthase
4133at2266	Complete	NZ_CP007493.1	1066248	1066481	-	134.9	66	https://www.orthodb.org/v10?query=4133at2266	SirA family protein
4136at2266	Complete	NZ_CP007493.1	1307850	1308491	-	116.7	138	https://www.orthodb.org/v10?query=4136at2266	CDP-alcohol phosphatidyltransferase
4137at2266	Complete	NZ_CP007493.1	1317786	1318070	-	136.7	75	https://www.orthodb.org/v10?query=4137at2266	50S ribosomal protein L23
4180at2266	Complete	NZ_CP007493.1	1465842	1466126	-	83.4	65	https://www.orthodb.org/v10?query=4180at2266	H/ACA RNA-protein complex protein Gar1
4219at2266	Complete	NZ_CP007493.1	1446779	1447054	+	113.9	65	https://www.orthodb.org/v10?query=4219at2266	30S ribosomal protein S17e
4244at2266	Complete	NZ_CP007493.1	519836	520285	+	152.4	126	https://www.orthodb.org/v10?query=4244at2266	NUDIX hydrolase
4252at2266	Complete	NZ_CP007493.1	1453517	1453822	+	109.9	85	https://www.orthodb.org/v10?query=4252at2266	signal recognition particle
4258at2266	Complete	NZ_CP007493.1	1586719	1586892	+	78.1	42	https://www.orthodb.org/v10?query=4258at2266	DNA-directed RNA polymerase subunit P
4268at2266	Complete	NZ_CP007493.1	211989	212312	-	83.1	89	https://www.orthodb.org/v10?query=4268at2266	50S ribosomal protein L12
4286at2266	Complete	NZ_CP007493.1	1718330	1718647	+	102.3	86	https://www.orthodb.org/v10?query=4286at2266	Transcription elongation factor 1
4287at2266	Missing
4298at2266	Complete	NZ_CP007493.1	1500059	1500268	-	100.7	57	https://www.orthodb.org/v10?query=4298at2266	Transcription elongation factor Spt4
