# BUSCO version is: 5.2.2 
# The lineage dataset is: methanomicrobia_odb10 (Creation date: 2021-02-23, number of genomes: 62, number of BUSCOs: 588)
# Busco id	Status	Sequence	Gene Start	Gene End	Strand	Score	Length	OrthoDB url	Description
55at224756	Complete	NZ_LKAZ01000030.1	13390	16572	+	1382.9	868	https://www.orthodb.org/v10?query=55at224756	Isoleucine--tRNA ligase
60at224756	Complete	NZ_LKAZ01000057.1	204453	207893	-	1536.7	928	https://www.orthodb.org/v10?query=60at224756	DNA polymerase II large subunit
95at224756	Complete	NZ_LKAZ01000048.1	86299	88683	+	1248.0	668	https://www.orthodb.org/v10?query=95at224756	anaerobic ribonucleoside-triphosphate reductase
121at224756	Complete	NZ_LKAZ01000043.1	94848	98120	-	1562.4	906	https://www.orthodb.org/v10?query=121at224756	carbamoyl-phosphate synthase large subunit
141at224756	Complete	NZ_LKAZ01000030.1	41079	44096	+	1298.8	783	https://www.orthodb.org/v10?query=141at224756	UvrABC system protein A
184at224756	Complete	NZ_LKAZ01000036.1	129645	132431	-	1244.9	734	https://www.orthodb.org/v10?query=184at224756	Alanine--tRNA ligase
214at224756	Complete	NZ_LKAZ01000036.1	4846	7548	+	1134.4	728	https://www.orthodb.org/v10?query=214at224756	DNA mismatch repair protein MutS
287at224756	Complete	NZ_LKAZ01000054.1	72995	75637	+	1351.9	747	https://www.orthodb.org/v10?query=287at224756	DNA-directed RNA polymerase subunit
303at224756	Complete	NZ_LKAZ01000057.1	238398	241925	+	1224.5	1176	https://www.orthodb.org/v10?query=303at224756	Chromosome partition protein Smc
334at224756	Complete	NZ_LKAZ01000022.1	7912	10776	+	1056.7	676	https://www.orthodb.org/v10?query=334at224756	DNA gyrase subunit A
343at224756	Complete	NZ_LKAZ01000042.1	55633	58242	+	1183.1	686	https://www.orthodb.org/v10?query=343at224756	Valine--tRNA ligase
368at224756	Complete	NZ_LKAZ01000042.1	21624	24542	+	1183.4	781	https://www.orthodb.org/v10?query=368at224756	Leucine--tRNA ligase
375at224756	Complete	NZ_LKAZ01000040.1	50209	53001	+	954.1	721	https://www.orthodb.org/v10?query=375at224756	DNA polymerase
440at224756	Complete	NZ_LKAZ01000041.1	1103	3970	-	1061.9	703	https://www.orthodb.org/v10?query=440at224756	helicase
441at224756	Complete	NZ_LKAZ01000038.1	21218	23542	+	555.5	466	https://www.orthodb.org/v10?query=441at224756	ATP-dependent DNA helicase
458at224756	Complete	NZ_LKAZ01000055.1	21672	23966	+	1038.7	654	https://www.orthodb.org/v10?query=458at224756	DNA topoisomerase I
521at224756	Complete	NZ_LKAZ01000054.1	187086	189275	+	841.9	575	https://www.orthodb.org/v10?query=521at224756	ATP-dependent DNA helicase Hel308
534at224756	Complete	NZ_LKAZ01000053.1	145511	147613	+	1239.1	697	https://www.orthodb.org/v10?query=534at224756	ATPase AAA
573at224756	Complete	NZ_LKAZ01000071.1	48200	50113	+	985.6	553	https://www.orthodb.org/v10?query=573at224756	beta-CASP ribonuclease aCPSF1
668at224756	Complete	NZ_LKAZ01000046.1	78063	80540	+	916.7	659	https://www.orthodb.org/v10?query=668at224756	DEAD/DEAH box helicase
692at224756	Complete	NZ_LKAZ01000054.1	79007	81199	+	1109.0	626	https://www.orthodb.org/v10?query=692at224756	elongation factor EF-2
840at224756	Complete	NZ_LKAZ01000022.1	5996	7900	+	913.6	538	https://www.orthodb.org/v10?query=840at224756	DNA gyrase subunit B
847at224756	Complete	NZ_LKAZ01000053.1	93631	95367	-	897.2	489	https://www.orthodb.org/v10?query=847at224756	V-type ATP synthase alpha chain
921at224756	Complete	NZ_LKAZ01000054.1	319053	320855	-	759.9	479	https://www.orthodb.org/v10?query=921at224756	indolepyruvate ferredoxin oxidoreductase subunit alpha
957at224756	Complete	NZ_LKAZ01000019.1	29323	31551	+	940.2	621	https://www.orthodb.org/v10?query=957at224756	phosphoesterase
1037at224756	Complete	NZ_LKAZ01000048.1	55774	58551	+	778.2	581	https://www.orthodb.org/v10?query=1037at224756	Hef nuclease
1102at224756	Complete	NZ_LKAZ01000054.1	3083	4789	-	616.1	448	https://www.orthodb.org/v10?query=1102at224756	DNA ligase
1169at224756	Complete	NZ_LKAZ01000071.1	19183	20946	-	900.3	494	https://www.orthodb.org/v10?query=1169at224756	Acetolactate synthase
1177at224756	Complete	NZ_LKAZ01000042.1	37665	39518	+	715.4	504	https://www.orthodb.org/v10?query=1177at224756	Glutamine--fructose-6-phosphate aminotransferase 
1187at224756	Complete	NZ_LKAZ01000031.1	26125	28227	+	1072.8	562	https://www.orthodb.org/v10?query=1187at224756	ATP-dependent protease LonB
1203at224756	Complete	NZ_LKAZ01000054.1	71168	72982	+	975.1	526	https://www.orthodb.org/v10?query=1203at224756	DNA-directed RNA polymerase subunit B
1204at224756	Complete	NZ_LKAZ01000057.1	378413	380527	-	1017.0	593	https://www.orthodb.org/v10?query=1204at224756	Methionine--tRNA ligase
1265at224756	Complete	NZ_LKAZ01000022.1	50729	52504	-	749.6	486	https://www.orthodb.org/v10?query=1265at224756	translation initiation factor IF-2
1274at224756	Complete	NZ_LKAZ01000048.1	61658	63277	+	702.7	444	https://www.orthodb.org/v10?query=1274at224756	O-phosphoserine--tRNA(Cys) ligase
1374at224756	Complete	NZ_LKAZ01000062.1	18606	20252	-	678.9	421	https://www.orthodb.org/v10?query=1374at224756	tRNA uridine(34) 5-carboxymethylaminomethyl modification radical SAM/GNAT enzyme Elp3
1384at224756	Complete	NZ_LKAZ01000030.1	45845	47857	+	990.3	572	https://www.orthodb.org/v10?query=1384at224756	UvrABC system protein B
1421at224756	Complete	NZ_LKAZ01000028.1	12155	13870	+	667.5	441	https://www.orthodb.org/v10?query=1421at224756	Glutamate--tRNA ligase
1524at224756	Complete	NZ_LKAZ01000022.1	2168	4033	+	783.5	460	https://www.orthodb.org/v10?query=1524at224756	DNA topoisomerase VI subunit B
1530at224756	Complete	NZ_LKAZ01000031.1	38772	40376	+	712.1	431	https://www.orthodb.org/v10?query=1530at224756	CTP synthase
1546at224756	Complete	NZ_LKAZ01000048.1	53850	55652	+	759.4	460	https://www.orthodb.org/v10?query=1546at224756	glycine--tRNA ligase
1608at224756	Complete	NZ_LKAZ01000074.1	2159	4066	+	865.7	530	https://www.orthodb.org/v10?query=1608at224756	Threonine--tRNA ligase
1641at224756	Complete	NZ_LKAZ01000048.1	177304	179595	-	794.5	506	https://www.orthodb.org/v10?query=1641at224756	YgiQ family radical SAM protein
1650at224756	Complete	NZ_LKAZ01000071.1	21229	22680	-	676.9	418	https://www.orthodb.org/v10?query=1650at224756	2-isopropylmalate synthase
1667at224756	Complete	NZ_LKAZ01000043.1	109403	111304	-	792.1	500	https://www.orthodb.org/v10?query=1667at224756	Glutamyl-tRNA(Gln) amidotransferase subunit E
1693at224756	Complete	NZ_LKAZ01000026.1	31988	33655	-	588.5	412	https://www.orthodb.org/v10?query=1693at224756	anthranilate synthase component I
1705at224756	Complete	NZ_LKAZ01000027.1	49856	51358	-	701.5	434	https://www.orthodb.org/v10?query=1705at224756	CBS domain-containing protein
1805at224756	Complete	NZ_LKAZ01000054.1	185110	186876	+	834.4	502	https://www.orthodb.org/v10?query=1805at224756	RNase L inhibitor
1830at224756	Complete	NZ_LKAZ01000036.1	144093	145571	+	557.5	356	https://www.orthodb.org/v10?query=1830at224756	Phenylalanine--tRNA ligase alpha subunit
1839at224756	Complete	NZ_LKAZ01000053.1	5238	6680	+	685.7	388	https://www.orthodb.org/v10?query=1839at224756	Proline--tRNA ligase
1857at224756	Complete	NZ_LKAZ01000036.1	53659	55161	+	696.6	416	https://www.orthodb.org/v10?query=1857at224756	tRNA-splicing ligase RtcB
1933at224756	Complete	NZ_LKAZ01000057.1	187849	189336	+	682.5	397	https://www.orthodb.org/v10?query=1933at224756	Aspartyl/glutamyl-tRNA(Asn/Gln) amidotransferase subunit B
1941at224756	Complete	NZ_LKAZ01000043.1	115716	117161	-	341.8	279	https://www.orthodb.org/v10?query=1941at224756	4Fe-4S dicluster domain-containing protein
1992at224756	Complete	NZ_LKAZ01000057.1	78815	80302	+	653.7	383	https://www.orthodb.org/v10?query=1992at224756	tRNA-guanine(15) transglycosylase
1998at224756	Complete	NZ_LKAZ01000019.1	5549	7471	+	795.4	534	https://www.orthodb.org/v10?query=1998at224756	ATPase
2022at224756	Complete	NZ_LKAZ01000046.1	94132	95982	+	829.8	510	https://www.orthodb.org/v10?query=2022at224756	Chaperone protein DnaK
2024at224756	Complete	NZ_LKAZ01000028.1	36989	38332	+	680.2	388	https://www.orthodb.org/v10?query=2024at224756	Ribonuclease J
2110at224756	Complete	NZ_LKAZ01000053.1	153180	154895	-	856.6	477	https://www.orthodb.org/v10?query=2110at224756	oxaloacetate decarboxylase subunit alpha
2170at224756	Complete	NZ_LKAZ01000033.1	20254	22236	+	676.7	557	https://www.orthodb.org/v10?query=2170at224756	DUF460 domain-containing protein
2194at224756	Complete	NZ_LKAZ01000054.1	57568	58866	+	485.2	333	https://www.orthodb.org/v10?query=2194at224756	5'-deoxyadenosine deaminase
2200at224756	Complete	NZ_LKAZ01000034.1	12867	15065	+	584.9	512	https://www.orthodb.org/v10?query=2200at224756	DUF814 domain-containing protein
2212at224756	Complete	NZ_LKAZ01000048.1	45155	46567	-	562.2	353	https://www.orthodb.org/v10?query=2212at224756	Cobyrinate a,c-diamide synthase
2214at224756	Complete	NZ_LKAZ01000057.1	182254	183687	-	635.3	387	https://www.orthodb.org/v10?query=2214at224756	methanogenesis marker 14 protein
2309at224756	Complete	NZ_LKAZ01000031.1	68222	69742	+	682.3	429	https://www.orthodb.org/v10?query=2309at224756	AMP phosphorylase
2337at224756	Complete	NZ_LKAZ01000053.1	92246	93628	-	735.6	387	https://www.orthodb.org/v10?query=2337at224756	V-type ATP synthase beta chain
2358at224756	Complete	NZ_LKAZ01000048.1	104975	106684	-	709.5	454	https://www.orthodb.org/v10?query=2358at224756	Arginine--tRNA ligase
2371at224756	Complete	NZ_LKAZ01000031.1	28230	29570	+	510.2	343	https://www.orthodb.org/v10?query=2371at224756	TldD/PmbA family protein
2377at224756	Complete	NZ_LKAZ01000057.1	359189	360805	-	658.2	436	https://www.orthodb.org/v10?query=2377at224756	bifunctional phosphoribosylaminoimidazolecarboxamide formyltransferase/IMP cyclohydrolase PurH
2384at224756	Complete	NZ_LKAZ01000055.1	7796	9097	-	686.8	396	https://www.orthodb.org/v10?query=2384at224756	Phenylacetate--CoA ligase
2481at224756	Complete	NZ_LKAZ01000041.1	36141	37403	+	509.7	357	https://www.orthodb.org/v10?query=2481at224756	Diaminopimelate decarboxylase
2518at224756	Complete	NZ_LKAZ01000057.1	15335	16666	-	619.2	380	https://www.orthodb.org/v10?query=2518at224756	signal recognition particle protein
2522at224756	Complete	NZ_LKAZ01000040.1	57791	59197	+	397.0	312	https://www.orthodb.org/v10?query=2522at224756	dihydroorotase
2526at224756	Complete	NZ_LKAZ01000030.1	87241	88869	-	652.7	438	https://www.orthodb.org/v10?query=2526at224756	phenylalanine--tRNA ligase subunit beta
2529at224756	Complete	NZ_LKAZ01000036.1	142548	144023	+	533.8	359	https://www.orthodb.org/v10?query=2529at224756	tryptophan--tRNA ligase
2573at224756	Complete	NZ_LKAZ01000054.1	23339	24814	+	682.1	411	https://www.orthodb.org/v10?query=2573at224756	Argininosuccinate lyase
2643at224756	Complete	NZ_LKAZ01000048.1	171612	173486	-	644.5	481	https://www.orthodb.org/v10?query=2643at224756	tRNA-ribosyltransferase
2682at224756	Complete	NZ_LKAZ01000028.1	22055	23626	+	686.0	454	https://www.orthodb.org/v10?query=2682at224756	phosphoglycerate dehydrogenase
2683at224756	Complete	NZ_LKAZ01000054.1	69558	71153	+	769.0	412	https://www.orthodb.org/v10?query=2683at224756	DNA-directed RNA polymerase subunit B''
2750at224756	Complete	NZ_LKAZ01000057.1	392434	393660	+	345.9	276	https://www.orthodb.org/v10?query=2750at224756	DNA repair protein
2759at224756	Complete	NZ_LKAZ01000053.1	151676	153157	-	719.1	406	https://www.orthodb.org/v10?query=2759at224756	acetyl-CoA carboxylase biotin carboxylase subunit
2765at224756	Complete	NZ_LKAZ01000057.1	263864	265159	-	625.8	355	https://www.orthodb.org/v10?query=2765at224756	Proteasome-activating nucleotidase
2801at224756	Complete	NZ_LKAZ01000027.1	20942	22669	-	670.4	426	https://www.orthodb.org/v10?query=2801at224756	radical SAM protein
2814at224756	Complete	NZ_LKAZ01000053.1	112044	113318	+	524.6	353	https://www.orthodb.org/v10?query=2814at224756	adenylosuccinate synthase
2828at224756	Complete	NZ_LKAZ01000028.1	6841	8115	+	569.4	357	https://www.orthodb.org/v10?query=2828at224756	Glutamate-1-semialdehyde 2,1-aminomutase
2885at224756	Complete	NZ_LKAZ01000067.1	495	2303	-	364.8	341	https://www.orthodb.org/v10?query=2885at224756	peptidase
2907at224756	Complete	NZ_LKAZ01000033.1	53722	55017	-	492.7	342	https://www.orthodb.org/v10?query=2907at224756	tRNA pseudouridine synthase Pus10
2983at224756	Complete	NZ_LKAZ01000043.1	93380	94564	-	666.3	357	https://www.orthodb.org/v10?query=2983at224756	Argininosuccinate synthase
2992at224756	Complete	NZ_LKAZ01000048.1	26093	27532	+	589.5	383	https://www.orthodb.org/v10?query=2992at224756	aspartate kinase, monofunctional class
3006at224756	Complete	NZ_LKAZ01000057.1	71862	73085	+	450.6	307	https://www.orthodb.org/v10?query=3006at224756	SUF system FeS cluster assembly, SufBD
3012at224756	Complete	NZ_LKAZ01000054.1	241598	243076	-	595.2	385	https://www.orthodb.org/v10?query=3012at224756	Protein translocase subunit SecY
3037at224756	Complete	NZ_LKAZ01000054.1	25012	26286	+	502.1	316	https://www.orthodb.org/v10?query=3037at224756	Glutamyl-tRNA(Gln) amidotransferase subunit D
3039at224756	Complete	NZ_LKAZ01000054.1	196737	198188	+	592.7	367	https://www.orthodb.org/v10?query=3039at224756	Amidophosphoribosyltransferase
3099at224756	Complete	NZ_LKAZ01000028.1	4137	5465	+	456.5	346	https://www.orthodb.org/v10?query=3099at224756	Glutamyl-tRNA reductase
3154at224756	Complete	NZ_LKAZ01000054.1	53073	54440	+	462.7	302	https://www.orthodb.org/v10?query=3154at224756	bifunctional phosphopantothenoylcysteine decarboxylase/phosphopantothenate--cysteine ligase CoaBC
3265at224756	Complete	NZ_LKAZ01000057.1	186421	187848	+	557.1	349	https://www.orthodb.org/v10?query=3265at224756	Glutamyl-tRNA(Gln) amidotransferase subunit A
3284at224756	Complete	NZ_LKAZ01000054.1	81557	82825	+	676.9	363	https://www.orthodb.org/v10?query=3284at224756	Elongation factor 1-alpha
3366at224756	Complete	NZ_LKAZ01000021.1	38233	39468	-	522.6	344	https://www.orthodb.org/v10?query=3366at224756	Histidine--tRNA ligase
3398at224756	Complete	NZ_LKAZ01000057.1	335241	336488	-	606.5	357	https://www.orthodb.org/v10?query=3398at224756	methanogenesis marker 15 protein
3413at224756	Complete	NZ_LKAZ01000057.1	66166	67350	+	540.6	331	https://www.orthodb.org/v10?query=3413at224756	redox-regulated ATPase YchF
3511at224756	Complete	NZ_LKAZ01000048.1	24488	25684	-	458.0	303	https://www.orthodb.org/v10?query=3511at224756	2,3-bisphosphoglycerate-independent phosphoglycerate mutase
3586at224756	Complete	NZ_LKAZ01000031.1	21385	22635	-	519.0	333	https://www.orthodb.org/v10?query=3586at224756	cysteate synthase
3590at224756	Complete	NZ_LKAZ01000054.1	192726	194024	-	674.4	386	https://www.orthodb.org/v10?query=3590at224756	Tryptophan synthase beta chain
3601at224756	Complete	NZ_LKAZ01000042.1	147922	149388	-	607.1	398	https://www.orthodb.org/v10?query=3601at224756	potassium transporter TrkA
3644at224756	Complete	NZ_LKAZ01000053.1	97752	99701	-	664.8	537	https://www.orthodb.org/v10?query=3644at224756	V-type ATP synthase subunit I
3650at224756	Complete	NZ_LKAZ01000048.1	168763	170319	+	465.0	314	https://www.orthodb.org/v10?query=3650at224756	DNA primase DnaG
3731at224756	Complete	NZ_LKAZ01000057.1	337752	339314	-	493.3	404	https://www.orthodb.org/v10?query=3731at224756	methanogenesis marker 3 protein
3767at224756	Complete	NZ_LKAZ01000054.1	75637	76821	+	520.7	298	https://www.orthodb.org/v10?query=3767at224756	DNA-directed RNA polymerase subunit A''
3786at224756	Complete	NZ_LKAZ01000031.1	91373	93220	+	319.8	270	https://www.orthodb.org/v10?query=3786at224756	indolepyruvate ferredoxin oxidoreductase
3797at224756	Complete	NZ_LKAZ01000057.1	316247	317605	+	683.3	391	https://www.orthodb.org/v10?query=3797at224756	Adenylosuccinate lyase
3850at224756	Complete	NZ_LKAZ01000057.1	202850	204097	+	548.6	349	https://www.orthodb.org/v10?query=3850at224756	methanogenesis marker radical SAM protein
3878at224756	Complete	NZ_LKAZ01000026.1	47387	48676	+	484.2	340	https://www.orthodb.org/v10?query=3878at224756	Enolase
3894at224756	Complete	NZ_LKAZ01000048.1	35397	36629	+	499.9	341	https://www.orthodb.org/v10?query=3894at224756	acetylornithine transaminase
3915at224756	Complete	NZ_LKAZ01000042.1	168329	169816	-	572.0	378	https://www.orthodb.org/v10?query=3915at224756	Cobyrinate a,c-diamide synthase
3916at224756	Complete	NZ_LKAZ01000048.1	181349	182869	-	664.3	415	https://www.orthodb.org/v10?query=3916at224756	2-isopropylmalate synthase
3924at224756	Complete	NZ_LKAZ01000031.1	11460	12761	-	504.2	359	https://www.orthodb.org/v10?query=3924at224756	Phosphoribosylamine--glycine ligase
3933at224756	Complete	NZ_LKAZ01000026.1	36348	37628	-	562.7	335	https://www.orthodb.org/v10?query=3933at224756	Tryptophan synthase beta chain
4009at224756	Complete	NZ_LKAZ01000022.1	4035	5144	+	543.9	311	https://www.orthodb.org/v10?query=4009at224756	DNA topoisomerase VI subunit A
4023at224756	Complete	NZ_LKAZ01000030.1	44219	45778	+	598.5	426	https://www.orthodb.org/v10?query=4023at224756	excinuclease ABC subunit C
4125at224756	Complete	NZ_LKAZ01000048.1	110029	111954	-	538.9	342	https://www.orthodb.org/v10?query=4125at224756	DNA polymerase II small subunit
4140at224756	Complete	NZ_LKAZ01000053.1	133990	135129	-	366.1	282	https://www.orthodb.org/v10?query=4140at224756	methanogenesis marker 9 domain-containing protein
4194at224756	Complete	NZ_LKAZ01000030.1	95596	96651	-	409.3	289	https://www.orthodb.org/v10?query=4194at224756	3-methyl-2-oxobutanoate dehydrogenase subunit VorB
4205at224756	Complete	NZ_LKAZ01000028.1	80378	81568	-	338.0	297	https://www.orthodb.org/v10?query=4205at224756	Putative nickel insertion protein
4255at224756	Complete	NZ_LKAZ01000034.1	15062	16114	+	434.6	291	https://www.orthodb.org/v10?query=4255at224756	Protein pelota homolog
4303at224756	Complete	NZ_LKAZ01000054.1	59008	60243	+	634.7	352	https://www.orthodb.org/v10?query=4303at224756	Adenosylhomocysteinase
4317at224756	Complete	NZ_LKAZ01000036.1	35182	36456	-	567.9	362	https://www.orthodb.org/v10?query=4317at224756	UbiD family decarboxylase
4364at224756	Complete	NZ_LKAZ01000042.1	170752	171864	-	501.9	316	https://www.orthodb.org/v10?query=4364at224756	Ni-sirohydrochlorin a,c-diamide reductive cyclase catalytic subunit
4422at224756	Complete	NZ_LKAZ01000054.1	173670	174908	+	544.6	319	https://www.orthodb.org/v10?query=4422at224756	Serine hydroxymethyltransferase
4511at224756	Complete	NZ_LKAZ01000042.1	200784	202010	+	563.1	343	https://www.orthodb.org/v10?query=4511at224756	Translation initiation factor 2 subunit gamma
4512at224756	Complete	NZ_LKAZ01000057.1	171345	172496	+	499.4	332	https://www.orthodb.org/v10?query=4512at224756	bifunctional hexulose-6-phosphate synthase/ribonuclease regulator
4523at224756	Complete	NZ_LKAZ01000057.1	21196	22290	+	511.0	317	https://www.orthodb.org/v10?query=4523at224756	GTP-binding protein
4551at224756	Complete	NZ_LKAZ01000036.1	96281	97408	+	600.0	328	https://www.orthodb.org/v10?query=4551at224756	3-isopropylmalate dehydrogenase
4574at224756	Complete	NZ_LKAZ01000053.1	51783	52763	+	390.8	257	https://www.orthodb.org/v10?query=4574at224756	methanogenesis marker 2 protein
4607at224756	Complete	NZ_LKAZ01000030.1	28982	30316	+	668.9	372	https://www.orthodb.org/v10?query=4607at224756	aspartate--tRNA(Asn) ligase
4610at224756	Complete	NZ_LKAZ01000071.1	12020	13429	+	571.4	377	https://www.orthodb.org/v10?query=4610at224756	glutamate synthase (NADPH), homotetrameric
4612at224756	Complete	NZ_LKAZ01000071.1	53192	54673	+	487.8	383	https://www.orthodb.org/v10?query=4612at224756	dihydropteroate synthase-like protein
4618at224756	Complete	NZ_LKAZ01000071.1	43776	44840	+	311.6	281	https://www.orthodb.org/v10?query=4618at224756	NMD3 family protein
4638at224756	Complete	NZ_LKAZ01000071.1	26721	28025	+	656.8	401	https://www.orthodb.org/v10?query=4638at224756	Phenylacetate--CoA ligase
4646at224756	Complete	NZ_LKAZ01000043.1	98120	99229	-	442.0	296	https://www.orthodb.org/v10?query=4646at224756	carbamoyl-phosphate synthase small subunit
4664at224756	Complete	NZ_LKAZ01000042.1	212733	213794	+	394.8	276	https://www.orthodb.org/v10?query=4664at224756	radical SAM protein
4681at224756	Complete	NZ_LKAZ01000043.1	40662	41879	-	539.8	336	https://www.orthodb.org/v10?query=4681at224756	2-isopropylmalate synthase
4690at224756	Complete	NZ_LKAZ01000048.1	150026	151102	-	350.4	291	https://www.orthodb.org/v10?query=4690at224756	elongation factor Tu
4696at224756	Complete	NZ_LKAZ01000048.1	115913	117121	+	538.5	326	https://www.orthodb.org/v10?query=4696at224756	pyruvate ferredoxin oxidoreductase
4701at224756	Complete	NZ_LKAZ01000031.1	44889	46205	-	433.2	340	https://www.orthodb.org/v10?query=4701at224756	tRNA pseudouridine(13) synthase TruD
4702at224756	Complete	NZ_LKAZ01000019.1	25268	26593	+	527.0	344	https://www.orthodb.org/v10?query=4702at224756	PurM-like, C-terminal domain
4707at224756	Complete	NZ_LKAZ01000048.1	27554	28555	+	405.7	260	https://www.orthodb.org/v10?query=4707at224756	Phosphoribosylformylglycinamidine cyclo-ligase
4740at224756	Complete	NZ_LKAZ01000046.1	96089	97255	+	344.1	280	https://www.orthodb.org/v10?query=4740at224756	Chaperone protein DnaJ
4751at224756	Complete	NZ_LKAZ01000048.1	145369	146613	+	589.2	330	https://www.orthodb.org/v10?query=4751at224756	ORC1-type DNA replication protein
4759at224756	Complete	NZ_LKAZ01000048.1	36610	37710	+	352.0	275	https://www.orthodb.org/v10?query=4759at224756	Histidinol-phosphate aminotransferase
4831at224756	Complete	NZ_LKAZ01000027.1	62178	64082	-	526.9	365	https://www.orthodb.org/v10?query=4831at224756	Replication factor C large subunit
4838at224756	Complete	NZ_LKAZ01000027.1	54440	55591	-	496.8	316	https://www.orthodb.org/v10?query=4838at224756	alanine--glyoxylate aminotransferase family protein
4851at224756	Complete	NZ_LKAZ01000027.1	52228	53370	-	503.8	312	https://www.orthodb.org/v10?query=4851at224756	Aminotransferase
4950at224756	Complete	NZ_LKAZ01000057.1	375081	376253	+	610.8	345	https://www.orthodb.org/v10?query=4950at224756	acetyl-CoA acetyltransferase
4980at224756	Complete	NZ_LKAZ01000054.1	343173	344354	-	587.9	347	https://www.orthodb.org/v10?query=4980at224756	Aminotransferase
5099at224756	Complete	NZ_LKAZ01000055.1	30309	31466	-	612.7	350	https://www.orthodb.org/v10?query=5099at224756	Aminotransferase
5127at224756	Complete	NZ_LKAZ01000028.1	79243	80271	+	378.5	264	https://www.orthodb.org/v10?query=5127at224756	aspartate-semialdehyde dehydrogenase
5215at224756	Complete	NZ_LKAZ01000054.1	131800	132813	+	327.9	259	https://www.orthodb.org/v10?query=5215at224756	N-acetyl-gamma-glutamyl-phosphate reductase
5303at224756	Complete	NZ_LKAZ01000054.1	189593	190888	+	557.2	356	https://www.orthodb.org/v10?query=5303at224756	Histidinol dehydrogenase
5311at224756	Complete	NZ_LKAZ01000054.1	4850	5845	-	439.1	311	https://www.orthodb.org/v10?query=5311at224756	Homoserine dehydrogenase
5321at224756	Complete	NZ_LKAZ01000033.1	61147	62313	+	453.1	311	https://www.orthodb.org/v10?query=5321at224756	tRNA (guanine(26)-N(2))-dimethyltransferase
5328at224756	Complete	NZ_LKAZ01000031.1	61170	62627	-	558.7	380	https://www.orthodb.org/v10?query=5328at224756	cobyric acid synthase
5364at224756	Complete	NZ_LKAZ01000054.1	141624	142988	-	525.8	371	https://www.orthodb.org/v10?query=5364at224756	CCA-adding enzyme
5489at224756	Complete	NZ_LKAZ01000057.1	194650	195942	+	384.0	315	https://www.orthodb.org/v10?query=5489at224756	3-phosphoshikimate 1-carboxyvinyltransferase
5605at224756	Complete	NZ_LKAZ01000036.1	33967	35175	-	481.8	321	https://www.orthodb.org/v10?query=5605at224756	DUF521 domain-containing protein
5697at224756	Complete	NZ_LKAZ01000028.1	5505	6479	+	447.1	272	https://www.orthodb.org/v10?query=5697at224756	Delta-aminolevulinic acid dehydratase
5727at224756	Complete	NZ_LKAZ01000036.1	85626	86795	+	389.1	300	https://www.orthodb.org/v10?query=5727at224756	Xaa-Pro aminopeptidase
5729at224756	Complete	NZ_LKAZ01000041.1	47132	48328	+	408.4	310	https://www.orthodb.org/v10?query=5729at224756	HD domain-containing protein
5741at224756	Complete	NZ_LKAZ01000071.1	44861	46036	+	291.3	265	https://www.orthodb.org/v10?query=5741at224756	ATP-dependent carboligase
5754at224756	Complete	NZ_LKAZ01000053.1	7473	8522	+	320.9	264	https://www.orthodb.org/v10?query=5754at224756	Nicotinate-nucleotide-dimethylbenzimidazole phosphoribosyltransferase-like
5755at224756	Complete	NZ_LKAZ01000030.1	109905	111017	-	497.0	310	https://www.orthodb.org/v10?query=5755at224756	pyridoxal phosphate-dependent aminotransferase
5765at224756	Complete	NZ_LKAZ01000071.1	29414	30391	+	316.0	254	https://www.orthodb.org/v10?query=5765at224756	methanogenesis marker 12 protein
5828at224756	Complete	NZ_LKAZ01000042.1	172087	173517	-	197.5	245	https://www.orthodb.org/v10?query=5828at224756	coenzyme F430 synthase
5835at224756	Complete	NZ_LKAZ01000036.1	89535	90617	+	328.2	267	https://www.orthodb.org/v10?query=5835at224756	RNA methyltransferase
5843at224756	Complete	NZ_LKAZ01000057.1	374014	375063	+	530.1	302	https://www.orthodb.org/v10?query=5843at224756	hydroxymethylglutaryl-CoA synthase
5887at224756	Complete	NZ_LKAZ01000031.1	10380	11288	-	457.2	251	https://www.orthodb.org/v10?query=5887at224756	Ornithine carbamoyltransferase
5889at224756	Complete	NZ_LKAZ01000030.1	107135	108139	+	426.2	261	https://www.orthodb.org/v10?query=5889at224756	GTP-binding protein
5920at224756	Complete	NZ_LKAZ01000041.1	46089	47018	-	333.9	233	https://www.orthodb.org/v10?query=5920at224756	2-phospho-L-lactate transferase
5966at224756	Complete	NZ_LKAZ01000036.1	31134	32258	-	415.0	262	https://www.orthodb.org/v10?query=5966at224756	TIGR04013 family B12-binding domain/radical SAM domain-containing protein
5974at224756	Complete	NZ_LKAZ01000054.1	171328	172311	+	416.6	275	https://www.orthodb.org/v10?query=5974at224756	transcriptional regulator
6001at224756	Complete	NZ_LKAZ01000054.1	253673	254686	-	470.3	294	https://www.orthodb.org/v10?query=6001at224756	50S ribosomal protein L3
6003at224756	Complete	NZ_LKAZ01000071.1	23091	24164	-	524.7	308	https://www.orthodb.org/v10?query=6003at224756	M42 family peptidase
6011at224756	Complete	NZ_LKAZ01000054.1	133372	134559	+	417.1	320	https://www.orthodb.org/v10?query=6011at224756	Arginine biosynthesis bifunctional protein ArgJ
6074at224756	Complete	NZ_LKAZ01000048.1	33755	34894	+	267.3	231	https://www.orthodb.org/v10?query=6074at224756	acyltransferase
6094at224756	Complete	NZ_LKAZ01000036.1	7648	9585	+	601.1	442	https://www.orthodb.org/v10?query=6094at224756	DNA mismatch repair protein MutL
6120at224756	Complete	NZ_LKAZ01000057.1	12193	13320	-	367.7	262	https://www.orthodb.org/v10?query=6120at224756	3-dehydroquinate synthase
6121at224756	Complete	NZ_LKAZ01000054.1	237434	238450	-	402.2	265	https://www.orthodb.org/v10?query=6121at224756	Probable tRNA pseudouridine synthase B
6168at224756	Complete	NZ_LKAZ01000030.1	54784	56139	+	457.2	330	https://www.orthodb.org/v10?query=6168at224756	TIGR00297 family protein
6180at224756	Complete	NZ_LKAZ01000028.1	43166	44179	+	607.9	286	https://www.orthodb.org/v10?query=6180at224756	Transcription initiation factor IIB
6192at224756	Complete	NZ_LKAZ01000053.1	108957	110198	-	549.0	310	https://www.orthodb.org/v10?query=6192at224756	peptidase
6200at224756	Complete	NZ_LKAZ01000048.1	136790	137683	+	403.3	258	https://www.orthodb.org/v10?query=6200at224756	Formylmethanofuran--tetrahydromethanopterin formyltransferase
6208at224756	Complete	NZ_LKAZ01000019.1	1519	2673	-	360.5	273	https://www.orthodb.org/v10?query=6208at224756	A0A063ZH89_9EURY
6218at224756	Complete	NZ_LKAZ01000031.1	29573	30883	+	435.4	349	https://www.orthodb.org/v10?query=6218at224756	TldD/PmbA family protein
6252at224756	Complete	NZ_LKAZ01000048.1	16506	18218	-	511.3	406	https://www.orthodb.org/v10?query=6252at224756	Protein-export membrane protein SecD
6256at224756	Complete	NZ_LKAZ01000032.1	1162	2061	-	306.1	242	https://www.orthodb.org/v10?query=6256at224756	carbohydrate kinase family protein
6276at224756	Complete	NZ_LKAZ01000048.1	141863	143065	-	442.4	317	https://www.orthodb.org/v10?query=6276at224756	tyrosine decarboxylase MfnA
6281at224756	Complete	NZ_LKAZ01000057.1	395000	396280	+	518.5	351	https://www.orthodb.org/v10?query=6281at224756	ATP-binding protein
6290at224756	Complete	NZ_LKAZ01000071.1	17406	18413	-	517.1	292	https://www.orthodb.org/v10?query=6290at224756	ketol-acid reductoisomerase
6293at224756	Complete	NZ_LKAZ01000059.1	16230	17327	+	488.9	312	https://www.orthodb.org/v10?query=6293at224756	Chorismate synthase
6296at224756	Complete	NZ_LKAZ01000057.1	5316	6494	+	598.7	352	https://www.orthodb.org/v10?query=6296at224756	formaldehyde-activating enzyme
6356at224756	Complete	NZ_LKAZ01000029.1	7839	8837	-	355.9	249	https://www.orthodb.org/v10?query=6356at224756	3-isopropylmalate dehydrogenase
6361at224756	Complete	NZ_LKAZ01000058.1	16933	18216	-	495.2	279	https://www.orthodb.org/v10?query=6361at224756	Signal recognition particle receptor FtsY
6377at224756	Complete	NZ_LKAZ01000028.1	34820	35920	+	420.7	279	https://www.orthodb.org/v10?query=6377at224756	Isopentenyl-diphosphate delta-isomerase
6438at224756	Complete	NZ_LKAZ01000033.1	18839	19948	+	349.6	241	https://www.orthodb.org/v10?query=6438at224756	serine/threonine protein kinase
6455at224756	Complete	NZ_LKAZ01000048.1	160358	161812	-	479.1	435	https://www.orthodb.org/v10?query=6455at224756	replication factor A
6568at224756	Complete	NZ_LKAZ01000054.1	155691	156668	+	513.4	281	https://www.orthodb.org/v10?query=6568at224756	DNA repair and recombination protein RadA
6584at224756	Complete	NZ_LKAZ01000022.1	22824	23720	+	410.7	240	https://www.orthodb.org/v10?query=6584at224756	Pyridoxal 5'-phosphate synthase subunit PdxS
6647at224756	Complete	NZ_LKAZ01000057.1	324964	325839	-	331.0	233	https://www.orthodb.org/v10?query=6647at224756	agmatinase
6659at224756	Complete	NZ_LKAZ01000057.1	177313	178353	+	371.8	272	https://www.orthodb.org/v10?query=6659at224756	TIGR01210 family radical SAM protein
6672at224756	Complete	NZ_LKAZ01000059.1	10602	11423	-	412.5	245	https://www.orthodb.org/v10?query=6672at224756	Imidazole glycerol phosphate synthase subunit HisF
6687at224756	Complete	NZ_LKAZ01000031.1	71585	73054	+	566.9	471	https://www.orthodb.org/v10?query=6687at224756	Asparagine synthase
6709at224756	Complete	NZ_LKAZ01000027.1	64555	65412	+	224.4	166	https://www.orthodb.org/v10?query=6709at224756	methyltransferase
6737at224756	Complete	NZ_LKAZ01000042.1	195538	196602	-	489.9	294	https://www.orthodb.org/v10?query=6737at224756	Glycerol-1-phosphate dehydrogenase 
6768at224756	Complete	NZ_LKAZ01000071.1	51886	53067	+	520.4	291	https://www.orthodb.org/v10?query=6768at224756	Cell division protein FtsZ
6775at224756	Complete	NZ_LKAZ01000042.1	197228	198085	+	261.2	227	https://www.orthodb.org/v10?query=6775at224756	DUF63 domain-containing protein
6783at224756	Complete	NZ_LKAZ01000028.1	38362	39333	+	336.2	243	https://www.orthodb.org/v10?query=6783at224756	polyprenyl synthetase family protein
6794at224756	Complete	NZ_LKAZ01000045.1	2785	3534	+	387.1	242	https://www.orthodb.org/v10?query=6794at224756	Nif3-like dinuclear metal center hexameric protein
6826at224756	Complete	NZ_LKAZ01000048.1	148622	149395	+	281.2	211	https://www.orthodb.org/v10?query=6826at224756	sugar phosphate isomerase/epimerase
6865at224756	Complete	NZ_LKAZ01000057.1	261525	262649	-	546.0	308	https://www.orthodb.org/v10?query=6865at224756	Cell division protein FtsZ
6890at224756	Complete	NZ_LKAZ01000031.1	78232	79626	-	358.0	328	https://www.orthodb.org/v10?query=6890at224756	membrane protein
6929at224756	Complete	NZ_LKAZ01000054.1	169893	171179	-	457.5	336	https://www.orthodb.org/v10?query=6929at224756	tRNA(Ile2) 2-agmatinylcytidine synthetase TiaS
6942at224756	Complete	NZ_LKAZ01000062.1	8438	9391	-	496.2	282	https://www.orthodb.org/v10?query=6942at224756	Tyrosine--tRNA ligase
6947at224756	Complete	NZ_LKAZ01000042.1	60271	61527	+	536.5	328	https://www.orthodb.org/v10?query=6947at224756	hydroxymethylglutaryl-CoA reductase (NADPH)
6951at224756	Complete	NZ_LKAZ01000042.1	29177	29965	+	348.4	221	https://www.orthodb.org/v10?query=6951at224756	Winged helix-like DNA-binding domain superfamily
6960at224756	Complete	NZ_LKAZ01000041.1	42444	43451	-	372.0	256	https://www.orthodb.org/v10?query=6960at224756	diphthamide biosynthesis enzyme Dph2
6973at224756	Complete	NZ_LKAZ01000057.1	224604	225482	-	458.2	243	https://www.orthodb.org/v10?query=6973at224756	branched-chain-amino-acid transaminase
7001at224756	Complete	NZ_LKAZ01000042.1	231062	232048	-	356.9	265	https://www.orthodb.org/v10?query=7001at224756	5,10-methylenetetrahydromethanopterin reductase
7031at224756	Complete	NZ_LKAZ01000057.1	333700	334632	-	350.4	251	https://www.orthodb.org/v10?query=7031at224756	methanogenesis marker 7 protein
7036at224756	Complete	NZ_LKAZ01000057.1	180471	181430	+	447.6	272	https://www.orthodb.org/v10?query=7036at224756	GTP cyclohydrolase I FolE2
7206at224756	Complete	NZ_LKAZ01000043.1	46601	47482	-	295.0	228	https://www.orthodb.org/v10?query=7206at224756	DUF89 domain-containing protein
7287at224756	Complete	NZ_LKAZ01000048.1	81573	82592	-	419.9	275	https://www.orthodb.org/v10?query=7287at224756	S-methyl-5-thioribose-1-phosphate isomerase
7384at224756	Complete	NZ_LKAZ01000053.1	150588	151565	-	352.4	263	https://www.orthodb.org/v10?query=7384at224756	biotin--
7395at224756	Complete	NZ_LKAZ01000048.1	138183	139712	-	447.1	321	https://www.orthodb.org/v10?query=7395at224756	TraB family protein
7402at224756	Complete	NZ_LKAZ01000041.1	12275	13132	-	300.5	207	https://www.orthodb.org/v10?query=7402at224756	phosphoesterase
7442at224756	Complete	NZ_LKAZ01000057.1	176274	177191	+	489.5	275	https://www.orthodb.org/v10?query=7442at224756	GMP synthase 
7484at224756	Complete	NZ_LKAZ01000031.1	48158	49144	-	282.0	228	https://www.orthodb.org/v10?query=7484at224756	RimK family alpha-L-glutamate ligase
7564at224756	Complete	NZ_LKAZ01000042.1	223021	223938	+	313.4	200	https://www.orthodb.org/v10?query=7564at224756	di-trans,poly-cis-decaprenylcistransferase
7601at224756	Complete	NZ_LKAZ01000042.1	104559	105500	-	390.2	250	https://www.orthodb.org/v10?query=7601at224756	DNA polymerase subunit beta
7631at224756	Complete	NZ_LKAZ01000048.1	153855	154631	-	276.5	221	https://www.orthodb.org/v10?query=7631at224756	CBS domain-containing protein
7640at224756	Complete	NZ_LKAZ01000057.1	345252	346268	+	436.4	283	https://www.orthodb.org/v10?query=7640at224756	Flap endonuclease 1
7650at224756	Complete	NZ_LKAZ01000053.1	50024	50992	+	350.5	223	https://www.orthodb.org/v10?query=7650at224756	nitrogenase cofactor biosynthesis protein NifB
7758at224756	Complete	NZ_LKAZ01000057.1	86267	87097	+	331.2	233	https://www.orthodb.org/v10?query=7758at224756	F420-dependent methylenetetrahydromethanopterin dehydrogenase
7808at224756	Complete	NZ_LKAZ01000042.1	166903	167955	-	385.0	291	https://www.orthodb.org/v10?query=7808at224756	tRNA-splicing endonuclease
7815at224756	Complete	NZ_LKAZ01000054.1	204664	205974	-	407.8	303	https://www.orthodb.org/v10?query=7815at224756	MiaB-like tRNA modifying enzyme
7816at224756	Complete	NZ_LKAZ01000042.1	99827	100777	-	276.0	218	https://www.orthodb.org/v10?query=7816at224756	Prephenate dehydratase
7817at224756	Complete	NZ_LKAZ01000057.1	161594	162469	+	388.9	240	https://www.orthodb.org/v10?query=7817at224756	4-hydroxy-tetrahydrodipicolinate synthase
7823at224756	Complete	NZ_LKAZ01000048.1	50424	51215	-	322.2	209	https://www.orthodb.org/v10?query=7823at224756	5'-nucleotidase SurE
7836at224756	Complete	NZ_LKAZ01000046.1	108288	109160	-	363.2	238	https://www.orthodb.org/v10?query=7836at224756	7,8-didemethyl-8-hydroxy-5-deazariboflavin synthase subunit CofG
7844at224756	Duplicated	NZ_LKAZ01000062.1	13015	13755	+	253.3	188	https://www.orthodb.org/v10?query=7844at224756	glucose-6-phosphate isomerase
7844at224756	Duplicated	NZ_LKAZ01000054.1	262439	263167	-	234.4	187	https://www.orthodb.org/v10?query=7844at224756	glucose-6-phosphate isomerase
7864at224756	Complete	NZ_LKAZ01000043.1	43179	43985	-	270.5	217	https://www.orthodb.org/v10?query=7864at224756	fructose 1,6-bisphosphatase
7908at224756	Complete	NZ_LKAZ01000046.1	75450	76586	+	387.2	281	https://www.orthodb.org/v10?query=7908at224756	DUF373 domain-containing protein
7912at224756	Complete	NZ_LKAZ01000042.1	149889	151397	+	468.8	388	https://www.orthodb.org/v10?query=7912at224756	Bifunctional NAD(P)H-hydrate repair enzyme
8056at224756	Complete	NZ_LKAZ01000042.1	152471	153322	+	346.0	243	https://www.orthodb.org/v10?query=8056at224756	Ribose-phosphate pyrophosphokinase
8128at224756	Complete	NZ_LKAZ01000028.1	10031	10810	+	289.1	208	https://www.orthodb.org/v10?query=8128at224756	dihydroorotate dehydrogenase electron transfer subunit
8295at224756	Complete	NZ_LKAZ01000042.1	45765	46682	-	375.8	241	https://www.orthodb.org/v10?query=8295at224756	ribonuclease Z
8319at224756	Complete	NZ_LKAZ01000053.1	48440	49207	+	220.1	196	https://www.orthodb.org/v10?query=8319at224756	7-carboxy-7-deazaguanine synthase
8378at224756	Complete	NZ_LKAZ01000048.1	20636	21400	-	249.5	193	https://www.orthodb.org/v10?query=8378at224756	coenzyme F420-0:L-glutamate ligase
8379at224756	Complete	NZ_LKAZ01000034.1	7433	8239	-	324.9	211	https://www.orthodb.org/v10?query=8379at224756	Translation initiation factor 2, alpha subunit
8398at224756	Complete	NZ_LKAZ01000032.1	3259	4059	-	361.2	226	https://www.orthodb.org/v10?query=8398at224756	Diphthine synthase
8431at224756	Complete	NZ_LKAZ01000042.1	49265	50032	+	389.0	220	https://www.orthodb.org/v10?query=8431at224756	uroporphyrinogen-III C-methyltransferase
8433at224756	Complete	NZ_LKAZ01000036.1	90791	91600	-	297.5	209	https://www.orthodb.org/v10?query=8433at224756	tRNA pseudouridine synthase A
8465at224756	Complete	NZ_LKAZ01000048.1	42132	42869	+	291.4	213	https://www.orthodb.org/v10?query=8465at224756	DNA polymerase sliding clamp
8469at224756	Complete	NZ_LKAZ01000057.1	373276	373965	+	281.7	189	https://www.orthodb.org/v10?query=8469at224756	transcriptional regulator
8493at224756	Complete	NZ_LKAZ01000054.1	247790	248497	-	267.1	195	https://www.orthodb.org/v10?query=8493at224756	Ribosomal protein S4e
8500at224756	Complete	NZ_LKAZ01000062.1	10899	11822	-	328.4	250	https://www.orthodb.org/v10?query=8500at224756	malate dehydrogenase
8522at224756	Complete	NZ_LKAZ01000054.1	54559	55491	+	274.6	220	https://www.orthodb.org/v10?query=8522at224756	pantothenate kinase
8540at224756	Complete	NZ_LKAZ01000040.1	56138	56914	+	342.8	206	https://www.orthodb.org/v10?query=8540at224756	phosphate ABC transporter ATP-binding protein
8546at224756	Complete	NZ_LKAZ01000030.1	91677	92375	-	200.7	166	https://www.orthodb.org/v10?query=8546at224756	phosphoribosylformylglycinamidine synthase subunit PurQ
8627at224756	Complete	NZ_LKAZ01000062.1	9430	10161	-	242.8	187	https://www.orthodb.org/v10?query=8627at224756	tRNAHis-5'-guanylyltransferase
8659at224756	Complete	NZ_LKAZ01000054.1	174862	175797	+	332.7	220	https://www.orthodb.org/v10?query=8659at224756	bifunctional methylenetetrahydrofolate dehydrogenase/methenyltetrahydrofolate cyclohydrolase
8690at224756	Complete	NZ_LKAZ01000036.1	87070	87960	+	371.3	257	https://www.orthodb.org/v10?query=8690at224756	Methionine aminopeptidase
8806at224756	Complete	NZ_LKAZ01000054.1	251934	252650	-	343.5	208	https://www.orthodb.org/v10?query=8806at224756	Ribosomal protein L2
8822at224756	Complete	NZ_LKAZ01000029.1	10721	11605	-	251.0	219	https://www.orthodb.org/v10?query=8822at224756	A0A2A2HM29_9EURY
8825at224756	Complete	NZ_LKAZ01000028.1	9126	10031	+	373.8	236	https://www.orthodb.org/v10?query=8825at224756	Dihydroorotate dehydrogenase
8858at224756	Complete	NZ_LKAZ01000031.1	87903	88748	-	119.5	95	https://www.orthodb.org/v10?query=8858at224756	molybdopterin-guanine dinucleotide biosynthesis protein B
8862at224756	Complete	NZ_LKAZ01000048.1	156165	157193	-	366.2	260	https://www.orthodb.org/v10?query=8862at224756	CBS domain-containing protein
8867at224756	Complete	NZ_LKAZ01000058.1	2762	3871	-	362.2	278	https://www.orthodb.org/v10?query=8867at224756	amidohydrolase
8868at224756	Complete	NZ_LKAZ01000048.1	42873	44066	+	285.7	248	https://www.orthodb.org/v10?query=8868at224756	DNA primase regulatory subunit PriL
8905at224756	Complete	NZ_LKAZ01000048.1	108848	109870	-	374.5	246	https://www.orthodb.org/v10?query=8905at224756	S-adenosyl-L-methionine-dependent tRNA 4-demethylwyosine synthase
8937at224756	Complete	NZ_LKAZ01000057.1	244889	245806	+	386.2	265	https://www.orthodb.org/v10?query=8937at224756	TIGR04182 family glycosyltransferase
8969at224756	Complete	NZ_LKAZ01000048.1	84505	85218	-	266.3	185	https://www.orthodb.org/v10?query=8969at224756	DNA repair and recombination protein RadB
8996at224756	Complete	NZ_LKAZ01000057.1	76969	77715	-	310.0	213	https://www.orthodb.org/v10?query=8996at224756	proteasome assembly chaperone family protein
9033at224756	Complete	NZ_LKAZ01000057.1	169297	170223	-	430.9	263	https://www.orthodb.org/v10?query=9033at224756	aspartate carbamoyltransferase
9131at224756	Complete	NZ_LKAZ01000057.1	209360	210646	-	497.1	347	https://www.orthodb.org/v10?query=9131at224756	Ribulose bisphosphate carboxylase
9134at224756	Missing
9165at224756	Complete	NZ_LKAZ01000038.1	18507	19253	+	213.5	184	https://www.orthodb.org/v10?query=9165at224756	Protein FdhD
9186at224756	Complete	NZ_LKAZ01000032.1	4518	5447	+	314.6	254	https://www.orthodb.org/v10?query=9186at224756	thioredoxin-disulfide reductase
9235at224756	Complete	NZ_LKAZ01000057.1	159571	160335	+	245.1	203	https://www.orthodb.org/v10?query=9235at224756	DUF1624 domain-containing protein
9295at224756	Complete	NZ_LKAZ01000048.1	90116	91138	+	297.4	218	https://www.orthodb.org/v10?query=9295at224756	thiamine-phosphate kinase
9331at224756	Complete	NZ_LKAZ01000059.1	12910	13545	-	176.7	160	https://www.orthodb.org/v10?query=9331at224756	Zn-finger protein
9337at224756	Complete	NZ_LKAZ01000048.1	49049	50047	+	345.7	239	https://www.orthodb.org/v10?query=9337at224756	GTP 3',8-cyclase MoaA
9350at224756	Complete	NZ_LKAZ01000028.1	82597	83298	+	282.9	188	https://www.orthodb.org/v10?query=9350at224756	Uridylate kinase
9355at224756	Complete	NZ_LKAZ01000053.1	132963	134003	-	367.3	265	https://www.orthodb.org/v10?query=9355at224756	triphosphoribosyl-dephospho-CoA synthase
9468at224756	Complete	NZ_LKAZ01000059.1	13716	14393	+	226.2	174	https://www.orthodb.org/v10?query=9468at224756	Riboflavin kinase
9484at224756	Complete	NZ_LKAZ01000030.1	105905	106780	-	359.0	247	https://www.orthodb.org/v10?query=9484at224756	Winged helix-like DNA-binding domain superfamily
9488at224756	Complete	NZ_LKAZ01000053.1	144630	145388	+	305.2	199	https://www.orthodb.org/v10?query=9488at224756	RNA methyltransferase
9491at224756	Complete	NZ_LKAZ01000054.1	252906	253667	-	341.7	211	https://www.orthodb.org/v10?query=9491at224756	50S ribosomal protein L4
9495at224756	Complete	NZ_LKAZ01000057.1	193826	194479	+	247.1	178	https://www.orthodb.org/v10?query=9495at224756	thymidylate synthase
9511at224756	Complete	NZ_LKAZ01000034.1	9917	11179	-	357.8	244	https://www.orthodb.org/v10?query=9511at224756	DNA primase
9518at224756	Complete	NZ_LKAZ01000048.1	18215	19120	-	341.1	247	https://www.orthodb.org/v10?query=9518at224756	Protein-export membrane protein SecF
9528at224756	Complete	NZ_LKAZ01000036.1	10132	11151	+	335.3	264	https://www.orthodb.org/v10?query=9528at224756	Cobalt-precorrin-5B C(1)-methyltransferase
9568at224756	Complete	NZ_LKAZ01000057.1	257896	258948	-	389.1	288	https://www.orthodb.org/v10?query=9568at224756	50S ribosomal protein L10
9620at224756	Complete	NZ_LKAZ01000028.1	120188	120868	-	255.5	167	https://www.orthodb.org/v10?query=9620at224756	fibrillarin-like rRNA methylase
9622at224756	Complete	NZ_LKAZ01000052.1	23128	23877	-	386.6	211	https://www.orthodb.org/v10?query=9622at224756	Proteasome subunit alpha
9647at224756	Complete	NZ_LKAZ01000046.1	91494	92462	-	255.6	218	https://www.orthodb.org/v10?query=9647at224756	ATP-grasp domain protein
9738at224756	Complete	NZ_LKAZ01000054.1	156832	157512	+	246.3	192	https://www.orthodb.org/v10?query=9738at224756	Phosphoglycolate phosphatase
9761at224756	Complete	NZ_LKAZ01000028.1	34035	34823	+	263.1	209	https://www.orthodb.org/v10?query=9761at224756	Isopentenyl phosphate kinase
9785at224756	Complete	NZ_LKAZ01000046.1	90449	91423	-	261.4	239	https://www.orthodb.org/v10?query=9785at224756	H4MPT-linked C1 transfer pathway protein
9819at224756	Complete	NZ_LKAZ01000028.1	8148	9098	+	366.2	241	https://www.orthodb.org/v10?query=9819at224756	hydroxymethylbilane synthase
9835at224756	Complete	NZ_LKAZ01000057.1	162466	163257	+	323.5	223	https://www.orthodb.org/v10?query=9835at224756	4-hydroxy-tetrahydrodipicolinate reductase
9860at224756	Complete	NZ_LKAZ01000057.1	266079	266921	-	319.0	222	https://www.orthodb.org/v10?query=9860at224756	metal-dependent hydrolase
9881at224756	Complete	NZ_LKAZ01000057.1	289121	289864	-	272.6	194	https://www.orthodb.org/v10?query=9881at224756	Glutamate synthase, alpha subunit, C-terminal
9904at224756	Complete	NZ_LKAZ01000030.1	30425	31123	+	276.9	189	https://www.orthodb.org/v10?query=9904at224756	Ribose-5-phosphate isomerase A
9914at224756	Complete	NZ_LKAZ01000021.1	10987	11634	-	286.0	180	https://www.orthodb.org/v10?query=9914at224756	Orotidine 5'-phosphate decarboxylase
9943at224756	Complete	NZ_LKAZ01000036.1	156283	156942	+	241.0	172	https://www.orthodb.org/v10?query=9943at224756	TfuA-related McrA-glycine thioamidation protein
9965at224756	Complete	NZ_LKAZ01000036.1	140213	140821	+	253.0	183	https://www.orthodb.org/v10?query=9965at224756	Translation initiation factor 2 subunit beta
10061at224756	Complete	NZ_LKAZ01000043.1	42350	43177	-	229.0	189	https://www.orthodb.org/v10?query=10061at224756	NAD kinase
10064at224756	Complete	NZ_LKAZ01000058.1	1351	2205	-	294.1	213	https://www.orthodb.org/v10?query=10064at224756	CBS domain-containing protein
10081at224756	Complete	NZ_LKAZ01000055.1	14258	15100	+	333.1	223	https://www.orthodb.org/v10?query=10081at224756	fumarate hydratase
10131at224756	Complete	NZ_LKAZ01000057.1	84251	85108	-	319.8	253	https://www.orthodb.org/v10?query=10131at224756	phosphoserine phosphatase
10144at224756	Complete	NZ_LKAZ01000030.1	112850	113491	-	332.2	185	https://www.orthodb.org/v10?query=10144at224756	GTP-binding protein
10182at224756	Complete	NZ_LKAZ01000021.1	16920	17789	-	276.4	222	https://www.orthodb.org/v10?query=10182at224756	geranylgeranylglycerol-phosphate geranylgeranyltransferase
10203at224756	Complete	NZ_LKAZ01000057.1	90479	91183	+	261.9	185	https://www.orthodb.org/v10?query=10203at224756	(5-formylfuran-3-yl)methyl phosphate synthase
10260at224756	Complete	NZ_LKAZ01000057.1	11414	12142	-	135.7	142	https://www.orthodb.org/v10?query=10260at224756	3-dehydroquinate dehydratase
10279at224756	Complete	NZ_LKAZ01000034.1	6491	7261	-	264.8	204	https://www.orthodb.org/v10?query=10279at224756	proteasome assembly chaperone family protein
10310at224756	Complete	NZ_LKAZ01000053.1	3950	4594	+	220.4	158	https://www.orthodb.org/v10?query=10310at224756	Zinc finger, ZPR1-type
10357at224756	Complete	NZ_LKAZ01000057.1	270993	271601	+	202.1	158	https://www.orthodb.org/v10?query=10357at224756	cobalt-factor II C(20)-methyltransferase
10421at224756	Complete	NZ_LKAZ01000057.1	178657	179550	-	383.3	256	https://www.orthodb.org/v10?query=10421at224756	Acetylglutamate kinase
10515at224756	Complete	NZ_LKAZ01000057.1	6636	7304	+	306.0	197	https://www.orthodb.org/v10?query=10515at224756	triose-phosphate isomerase
10586at224756	Complete	NZ_LKAZ01000021.1	44009	44614	+	212.2	169	https://www.orthodb.org/v10?query=10586at224756	nucleotidyltransferase
10620at224756	Complete	NZ_LKAZ01000028.1	33035	33940	+	242.2	229	https://www.orthodb.org/v10?query=10620at224756	Mevalonate kinase
10655at224756	Complete	NZ_LKAZ01000028.1	86972	87895	-	393.0	256	https://www.orthodb.org/v10?query=10655at224756	ribose 1,5-bisphosphate isomerase
10666at224756	Complete	NZ_LKAZ01000042.1	163762	164436	-	224.4	171	https://www.orthodb.org/v10?query=10666at224756	PHP domain-containing protein
10710at224756	Complete	NZ_LKAZ01000054.1	49187	49978	-	333.3	223	https://www.orthodb.org/v10?query=10710at224756	Ribosomal RNA large subunit methyltransferase E
10722at224756	Complete	NZ_LKAZ01000057.1	199961	200581	-	228.8	162	https://www.orthodb.org/v10?query=10722at224756	Methyl-coenzyme M reductase operon protein C
10752at224756	Complete	NZ_LKAZ01000057.1	396283	397023	+	251.8	184	https://www.orthodb.org/v10?query=10752at224756	MBL fold metallo-hydrolase
10790at224756	Complete	NZ_LKAZ01000054.1	239149	239769	-	238.0	154	https://www.orthodb.org/v10?query=10790at224756	DUF106 domain-containing protein
10857at224756	Complete	NZ_LKAZ01000046.1	104898	105524	-	237.1	175	https://www.orthodb.org/v10?query=10857at224756	2-phospho-L-lactate guanylyltransferase
10910at224756	Complete	NZ_LKAZ01000071.1	47455	48090	+	302.5	176	https://www.orthodb.org/v10?query=10910at224756	Proteasome subunit beta
10929at224756	Complete	NZ_LKAZ01000057.1	341327	342127	-	259.8	218	https://www.orthodb.org/v10?query=10929at224756	haloacid dehalogenase
10973at224756	Complete	NZ_LKAZ01000021.1	23252	24076	+	338.3	235	https://www.orthodb.org/v10?query=10973at224756	nicotinate-nucleotide diphosphorylase (carboxylating)
10993at224756	Complete	NZ_LKAZ01000048.1	30834	31400	-	159.3	137	https://www.orthodb.org/v10?query=10993at224756	Class I glutamine amidotransferase-like
11002at224756	Complete	NZ_LKAZ01000048.1	112807	113364	+	179.6	137	https://www.orthodb.org/v10?query=11002at224756	signal peptidase I
11006at224756	Complete	NZ_LKAZ01000057.1	273344	274144	+	298.7	211	https://www.orthodb.org/v10?query=11006at224756	precorrin-3B C(17)-methyltransferase
11032at224756	Complete	NZ_LKAZ01000028.1	31082	31825	+	307.7	164	https://www.orthodb.org/v10?query=11032at224756	Ribosomal protein S2
11033at224756	Complete	NZ_LKAZ01000028.1	31895	32692	+	277.5	210	https://www.orthodb.org/v10?query=11033at224756	MEMO1 family protein
11062at224756	Complete	NZ_LKAZ01000054.1	48412	49068	-	274.1	179	https://www.orthodb.org/v10?query=11062at224756	PHP domain-containing protein
11072at224756	Fragmented	NZ_LKAZ01000031.1	90345	91115	+	256.4	202	https://www.orthodb.org/v10?query=11072at224756	DUF1743 domain-containing protein
11090at224756	Complete	NZ_LKAZ01000057.1	342220	343116	-	284.5	237	https://www.orthodb.org/v10?query=11090at224756	Presenilin/signal peptide peptidase
11091at224756	Complete	NZ_LKAZ01000055.1	15100	15675	+	217.4	153	https://www.orthodb.org/v10?query=11091at224756	fumarate hydratase
11161at224756	Complete	NZ_LKAZ01000054.1	234499	235299	-	309.1	213	https://www.orthodb.org/v10?query=11161at224756	DNA-directed RNA polymerase subunit D
11190at224756	Complete	NZ_LKAZ01000052.1	22357	23049	-	345.0	210	https://www.orthodb.org/v10?query=11190at224756	ribosome assembly factor SBDS
11273at224756	Complete	NZ_LKAZ01000053.1	91611	92240	-	249.1	168	https://www.orthodb.org/v10?query=11273at224756	V-type ATP synthase subunit D
11286at224756	Complete	NZ_LKAZ01000032.1	371	1042	-	340.0	227	https://www.orthodb.org/v10?query=11286at224756	ATP-binding protein
11315at224756	Complete	NZ_LKAZ01000054.1	180004	180813	+	311.2	209	https://www.orthodb.org/v10?query=11315at224756	coenzyme F420-0:L-glutamate ligase
11317at224756	Complete	NZ_LKAZ01000026.1	35555	36346	-	263.1	194	https://www.orthodb.org/v10?query=11317at224756	Tryptophan synthase alpha chain
11333at224756	Complete	NZ_LKAZ01000026.1	31231	31836	-	187.9	147	https://www.orthodb.org/v10?query=11333at224756	type 1 glutamine amidotransferase
11339at224756	Complete	NZ_LKAZ01000042.1	209444	210007	+	176.7	136	https://www.orthodb.org/v10?query=11339at224756	non-canonical purine NTP pyrophosphatase
11344at224756	Complete	NZ_LKAZ01000019.1	24380	24988	+	237.5	163	https://www.orthodb.org/v10?query=11344at224756	imidazole glycerol phosphate synthase subunit HisH
11376at224756	Complete	NZ_LKAZ01000030.1	16636	17277	+	218.8	170	https://www.orthodb.org/v10?query=11376at224756	6-hydroxymethyl-7,8-dihydropterin pyrophosphokinase
11453at224756	Complete	NZ_LKAZ01000031.1	82167	83075	+	353.6	271	https://www.orthodb.org/v10?query=11453at224756	TIGR00269 family protein
11483at224756	Complete	NZ_LKAZ01000058.1	515	1198	-	278.7	182	https://www.orthodb.org/v10?query=11483at224756	5-amino-6-(5-phosphoribosylamino)uracil reductase
11518at224756	Complete	NZ_LKAZ01000041.1	43432	44004	-	219.5	138	https://www.orthodb.org/v10?query=11518at224756	Hypoxanthine/guanine phosphoribosyltransferase
11582at224756	Complete	NZ_LKAZ01000028.1	81603	82409	-	223.4	170	https://www.orthodb.org/v10?query=11582at224756	phosphoribosylaminoimidazole carboxylase
11616at224756	Complete	NZ_LKAZ01000058.1	20403	21005	-	249.0	177	https://www.orthodb.org/v10?query=11616at224756	alpha hydrolase
11626at224756	Complete	NZ_LKAZ01000040.1	59973	60755	-	315.8	200	https://www.orthodb.org/v10?query=11626at224756	serine protein kinase RIO
11636at224756	Complete	NZ_LKAZ01000054.1	235753	236406	-	219.2	152	https://www.orthodb.org/v10?query=11636at224756	30S ribosomal protein S4
11653at224756	Complete	NZ_LKAZ01000057.1	271673	272401	+	323.9	206	https://www.orthodb.org/v10?query=11653at224756	cobalt-precorrin-4 C(11)-methyltransferase
11665at224756	Complete	NZ_LKAZ01000021.1	22180	22995	-	285.9	222	https://www.orthodb.org/v10?query=11665at224756	aspartate dehydrogenase
11671at224756	Complete	NZ_LKAZ01000036.1	61610	62524	-	393.9	258	https://www.orthodb.org/v10?query=11671at224756	Tetrahydromethanopterin S-methyltransferase subunit E
11707at224756	Complete	NZ_LKAZ01000054.1	318457	319056	-	265.8	174	https://www.orthodb.org/v10?query=11707at224756	indolepyruvate ferredoxin oxidoreductase subunit beta
11722at224756	Complete	NZ_LKAZ01000036.1	80690	81427	-	315.4	215	https://www.orthodb.org/v10?query=11722at224756	1-(5-phosphoribosyl)-5-
11723at224756	Complete	NZ_LKAZ01000041.1	48891	49511	+	232.0	160	https://www.orthodb.org/v10?query=11723at224756	Flavin prenyltransferase UbiX
11742at224756	Complete	NZ_LKAZ01000048.1	179715	180356	-	196.1	157	https://www.orthodb.org/v10?query=11742at224756	MBL fold metallo-hydrolase
11752at224756	Complete	NZ_LKAZ01000053.1	47125	47820	+	236.2	188	https://www.orthodb.org/v10?query=11752at224756	7-cyano-7-deazaguanine synthase
11793at224756	Complete	NZ_LKAZ01000054.1	172646	173254	+	227.7	144	https://www.orthodb.org/v10?query=11793at224756	phosphoribosylglycinamide formyltransferase
11808at224756	Complete	NZ_LKAZ01000059.1	14390	15130	+	297.3	189	https://www.orthodb.org/v10?query=11808at224756	3,4-dihydroxy-2-butanone 4-phosphate synthase
11870at224756	Complete	NZ_LKAZ01000057.1	372267	373085	-	155.0	167	https://www.orthodb.org/v10?query=11870at224756	Dna2/Cas4 domain-containing protein
11933at224756	Complete	NZ_LKAZ01000036.1	80068	80628	-	232.9	160	https://www.orthodb.org/v10?query=11933at224756	Imidazoleglycerol-phosphate dehydratase
12146at224756	Complete	NZ_LKAZ01000026.1	34349	35449	-	402.0	286	https://www.orthodb.org/v10?query=12146at224756	Anthranilate phosphoribosyltransferase
12208at224756	Complete	NZ_LKAZ01000054.1	244116	244742	-	318.3	181	https://www.orthodb.org/v10?query=12208at224756	Ribosomal protein S5
12216at224756	Complete	NZ_LKAZ01000053.1	139330	139965	-	227.7	177	https://www.orthodb.org/v10?query=12216at224756	DUF116 domain-containing protein
12309at224756	Complete	NZ_LKAZ01000054.1	246185	246715	-	214.6	143	https://www.orthodb.org/v10?query=12309at224756	Ribosomal protein L6, alpha-beta domain
12426at224756	Complete	NZ_LKAZ01000054.1	118999	119607	+	197.8	159	https://www.orthodb.org/v10?query=12426at224756	TIGR00296 family protein
12449at224756	Complete	NZ_LKAZ01000036.1	60056	60859	-	285.4	219	https://www.orthodb.org/v10?query=12449at224756	Tetrahydromethanopterin S-methyltransferase subunit C
12482at224756	Complete	NZ_LKAZ01000030.1	102282	102785	-	171.9	133	https://www.orthodb.org/v10?query=12482at224756	amino acid-binding protein
12485at224756	Complete	NZ_LKAZ01000057.1	14707	15276	+	221.6	151	https://www.orthodb.org/v10?query=12485at224756	GMP synthase
12536at224756	Complete	NZ_LKAZ01000042.1	202443	203018	+	259.6	163	https://www.orthodb.org/v10?query=12536at224756	DNA-directed RNA polymerase
12564at224756	Complete	NZ_LKAZ01000036.1	51202	51936	+	253.9	170	https://www.orthodb.org/v10?query=12564at224756	fuculose phosphate aldolase
12570at224756	Complete	NZ_LKAZ01000021.1	41497	42483	+	343.5	246	https://www.orthodb.org/v10?query=12570at224756	cobalamin biosynthesis protein
12594at224756	Complete	NZ_LKAZ01000048.1	88732	89514	+	217.3	177	https://www.orthodb.org/v10?query=12594at224756	anaerobic ribonucleoside-triphosphate reductase activating protein
12601at224756	Complete	NZ_LKAZ01000048.1	158377	159642	-	236.9	268	https://www.orthodb.org/v10?query=12601at224756	CBS domain-containing protein
12664at224756	Complete	NZ_LKAZ01000022.1	24064	24675	+	237.0	168	https://www.orthodb.org/v10?query=12664at224756	Pyridoxal 5'-phosphate synthase subunit PdxT
12666at224756	Complete	NZ_LKAZ01000041.1	41751	42344	-	222.5	160	https://www.orthodb.org/v10?query=12666at224756	Methyltransferase
12719at224756	Complete	NZ_LKAZ01000046.1	93330	93959	+	157.8	127	https://www.orthodb.org/v10?query=12719at224756	Protein GrpE
12751at224756	Complete	NZ_LKAZ01000071.1	46217	46672	+	197.8	133	https://www.orthodb.org/v10?query=12751at224756	transcription factor
12764at224756	Complete	NZ_LKAZ01000060.1	20481	21092	-	263.4	173	https://www.orthodb.org/v10?query=12764at224756	30S ribosomal protein S3ae
12782at224756	Complete	NZ_LKAZ01000055.1	20266	20787	+	249.5	145	https://www.orthodb.org/v10?query=12782at224756	Ribosome biogenesis protein
12785at224756	Complete	NZ_LKAZ01000033.1	56080	56736	+	223.0	176	https://www.orthodb.org/v10?query=12785at224756	metallophosphoesterase
12808at224756	Complete	NZ_LKAZ01000054.1	342250	342933	-	311.4	178	https://www.orthodb.org/v10?query=12808at224756	queuine tRNA-ribosyltransferase containing PUA domain protein
12816at224756	Complete	NZ_LKAZ01000054.1	344428	344964	-	218.6	134	https://www.orthodb.org/v10?query=12816at224756	Lrp/AsnC family transcriptional regulator
12873at224756	Complete	NZ_LKAZ01000054.1	55916	56677	+	293.2	184	https://www.orthodb.org/v10?query=12873at224756	phosphopantothenate/pantothenate synthetase
12881at224756	Complete	NZ_LKAZ01000057.1	376780	377313	+	135.6	132	https://www.orthodb.org/v10?query=12881at224756	Adenylate cyclase
12897at224756	Complete	NZ_LKAZ01000059.1	4946	5626	+	175.4	168	https://www.orthodb.org/v10?query=12897at224756	class I SAM-dependent methyltransferase
12898at224756	Complete	NZ_LKAZ01000026.1	37858	38661	-	223.4	188	https://www.orthodb.org/v10?query=12898at224756	Indole-3-glycerol phosphate synthase
13058at224756	Complete	NZ_LKAZ01000031.1	95746	96504	-	262.4	189	https://www.orthodb.org/v10?query=13058at224756	Peptidyl-prolyl cis-trans isomerase
13113at224756	Complete	NZ_LKAZ01000048.1	97796	98560	+	351.6	198	https://www.orthodb.org/v10?query=13113at224756	ABC transporter ATP-binding protein
13131at224756	Complete	NZ_LKAZ01000019.1	32635	33135	-	105.2	118	https://www.orthodb.org/v10?query=13131at224756	DNA-binding protein
13134at224756	Complete	NZ_LKAZ01000033.1	49874	50482	-	183.1	136	https://www.orthodb.org/v10?query=13134at224756	modification methylase HemK
13136at224756	Complete	NZ_LKAZ01000033.1	22438	23199	+	259.2	199	https://www.orthodb.org/v10?query=13136at224756	UPF0280 family protein
13143at224756	Complete	NZ_LKAZ01000021.1	43182	44024	+	275.8	219	https://www.orthodb.org/v10?query=13143at224756	Adenosylcobinamide-GDP ribazoletransferase
13181at224756	Complete	NZ_LKAZ01000057.1	67453	68127	+	169.9	112	https://www.orthodb.org/v10?query=13181at224756	di-trans,poly-cis-decaprenylcistransferase
13207at224756	Complete	NZ_LKAZ01000028.1	120869	121879	-	281.4	216	https://www.orthodb.org/v10?query=13207at224756	rRNA biogenesis protein
13226at224756	Complete	NZ_LKAZ01000042.1	194040	194660	-	244.2	180	https://www.orthodb.org/v10?query=13226at224756	DUF2150 domain-containing protein
13279at224756	Complete	NZ_LKAZ01000054.1	238607	239149	-	240.4	158	https://www.orthodb.org/v10?query=13279at224756	Cytidylate kinase
13343at224756	Complete	NZ_LKAZ01000027.1	53870	54334	-	215.4	126	https://www.orthodb.org/v10?query=13343at224756	Riboflavin synthase
13347at224756	Complete	NZ_LKAZ01000021.1	30655	31113	-	197.2	131	https://www.orthodb.org/v10?query=13347at224756	30S ribosomal protein S15
13374at224756	Complete	NZ_LKAZ01000042.1	151758	152258	+	171.9	125	https://www.orthodb.org/v10?query=13374at224756	Probable cyclic pyranopterin monophosphate synthase
13378at224756	Complete	NZ_LKAZ01000036.1	137462	138019	-	208.9	140	https://www.orthodb.org/v10?query=13378at224756	molybdenum cofactor biosynthesis protein MoaB
13383at224756	Complete	NZ_LKAZ01000033.1	55270	55953	-	232.8	161	https://www.orthodb.org/v10?query=13383at224756	tRNA (pseudouridine(54)-N(1))-methyltransferase
13406at224756	Complete	NZ_LKAZ01000028.1	26121	26624	+	120.0	128	https://www.orthodb.org/v10?query=13406at224756	DUF2240 domain-containing protein
13456at224756	Complete	NZ_LKAZ01000031.1	87122	87787	-	161.8	154	https://www.orthodb.org/v10?query=13456at224756	molybdenum cofactor guanylyltransferase
13468at224756	Complete	NZ_LKAZ01000057.1	258949	259590	-	292.1	190	https://www.orthodb.org/v10?query=13468at224756	Ribosomal protein L1
13498at224756	Complete	NZ_LKAZ01000042.1	229330	229851	-	261.6	155	https://www.orthodb.org/v10?query=13498at224756	Nicotinamide-nucleotide adenylyltransferase
13500at224756	Complete	NZ_LKAZ01000033.1	51494	52225	-	272.5	169	https://www.orthodb.org/v10?query=13500at224756	DUF655 domain-containing protein
13539at224756	Complete	NZ_LKAZ01000030.1	89330	89998	+	172.8	150	https://www.orthodb.org/v10?query=13539at224756	Ribonuclease HII
13562at224756	Complete	NZ_LKAZ01000057.1	336485	336997	-	202.1	123	https://www.orthodb.org/v10?query=13562at224756	methanogenesis marker 5 protein
13591at224756	Complete	NZ_LKAZ01000057.1	71137	71880	+	345.3	216	https://www.orthodb.org/v10?query=13591at224756	ABC transporter ATP-binding protein
13595at224756	Complete	NZ_LKAZ01000054.1	236430	236888	-	219.5	138	https://www.orthodb.org/v10?query=13595at224756	30S ribosomal protein S13
13679at224756	Complete	NZ_LKAZ01000054.1	243653	244114	-	189.4	131	https://www.orthodb.org/v10?query=13679at224756	Ribosomal protein L30, ferredoxin-like fold domain
13694at224756	Complete	NZ_LKAZ01000057.1	89633	90367	-	244.5	207	https://www.orthodb.org/v10?query=13694at224756	phosphoribosylformimino-5-aminoimidazole carboxamide ribotide isomerase
13727at224756	Complete	NZ_LKAZ01000054.1	77925	78353	+	236.6	121	https://www.orthodb.org/v10?query=13727at224756	30S ribosomal protein S12
13739at224756	Complete	NZ_LKAZ01000034.1	9226	9951	-	166.0	158	https://www.orthodb.org/v10?query=13739at224756	DNA replication factor GINS
13785at224756	Complete	NZ_LKAZ01000046.1	89699	90367	-	139.6	104	https://www.orthodb.org/v10?query=13785at224756	amino acid kinase
13809at224756	Complete	NZ_LKAZ01000054.1	78360	78920	+	339.7	182	https://www.orthodb.org/v10?query=13809at224756	30S ribosomal protein S7
13828at224756	Complete	NZ_LKAZ01000048.1	115033	115581	+	277.2	160	https://www.orthodb.org/v10?query=13828at224756	pyruvate ferredoxin oxidoreductase
13862at224756	Complete	NZ_LKAZ01000031.1	69798	70331	+	257.2	148	https://www.orthodb.org/v10?query=13862at224756	tRNA (cytidine(56)-2'-O)-methyltransferase
13908at224756	Complete	NZ_LKAZ01000054.1	247288	247785	-	251.8	150	https://www.orthodb.org/v10?query=13908at224756	Ribosomal protein L5
13933at224756	Complete	NZ_LKAZ01000022.1	52661	53110	-	225.7	132	https://www.orthodb.org/v10?query=13933at224756	Nucleoside diphosphate kinase
13941at224756	Complete	NZ_LKAZ01000054.1	245748	246176	-	140.0	107	https://www.orthodb.org/v10?query=13941at224756	50S ribosomal protein L32e
13947at224756	Complete	NZ_LKAZ01000027.1	55909	56472	-	201.7	154	https://www.orthodb.org/v10?query=13947at224756	transcriptional regulator
14103at224756	Complete	NZ_LKAZ01000054.1	132889	133353	+	120.0	115	https://www.orthodb.org/v10?query=14103at224756	CBS domain-containing protein
14137at224756	Complete	NZ_LKAZ01000071.1	18698	19183	-	239.2	144	https://www.orthodb.org/v10?query=14137at224756	acetolactate synthase small subunit
14138at224756	Complete	NZ_LKAZ01000057.1	274134	274865	+	335.2	192	https://www.orthodb.org/v10?query=14138at224756	precorrin-8X methylmutase
14197at224756	Complete	NZ_LKAZ01000052.1	26254	26853	-	240.8	159	https://www.orthodb.org/v10?query=14197at224756	50S ribosomal protein L15e
14215at224756	Complete	NZ_LKAZ01000054.1	207461	207985	-	174.9	130	https://www.orthodb.org/v10?query=14215at224756	CGI121/TPRKB
14222at224756	Complete	NZ_LKAZ01000054.1	5871	6374	-	177.8	135	https://www.orthodb.org/v10?query=14222at224756	amino acid-binding protein
14228at224756	Complete	NZ_LKAZ01000040.1	59423	59971	-	169.7	144	https://www.orthodb.org/v10?query=14228at224756	RNA-processing protein
14252at224756	Complete	NZ_LKAZ01000036.1	139654	140178	+	229.4	138	https://www.orthodb.org/v10?query=14252at224756	50S ribosomal protein L10e
14262at224756	Complete	NZ_LKAZ01000054.1	251508	251918	-	182.4	120	https://www.orthodb.org/v10?query=14262at224756	30S ribosomal protein S19
14283at224756	Complete	NZ_LKAZ01000057.1	376259	376657	+	186.6	114	https://www.orthodb.org/v10?query=14283at224756	transcriptional regulator
14310at224756	Complete	NZ_LKAZ01000071.1	28321	28758	+	169.0	113	https://www.orthodb.org/v10?query=14310at224756	ACT domain-containing protein
14312at224756	Complete	NZ_LKAZ01000057.1	263106	263789	-	196.8	161	https://www.orthodb.org/v10?query=14312at224756	DUF99 domain-containing protein
14341at224756	Complete	NZ_LKAZ01000043.1	30403	30870	-	142.1	122	https://www.orthodb.org/v10?query=14341at224756	DUF2124 domain-containing protein
14345at224756	Complete	NZ_LKAZ01000052.1	24722	25105	-	133.4	102	https://www.orthodb.org/v10?query=14345at224756	ribonuclease P
14385at224756	Complete	NZ_LKAZ01000053.1	132337	132966	-	172.8	148	https://www.orthodb.org/v10?query=14385at224756	DUF447 domain-containing protein
14393at224756	Complete	NZ_LKAZ01000028.1	29607	30029	+	166.0	113	https://www.orthodb.org/v10?query=14393at224756	50S ribosomal protein L13
14420at224756	Complete	NZ_LKAZ01000036.1	33528	34019	-	169.6	100	https://www.orthodb.org/v10?query=14420at224756	Aconitase X subunit 2, putative
14460at224756	Complete	NZ_LKAZ01000027.1	53426	53830	-	186.4	116	https://www.orthodb.org/v10?query=14460at224756	6,7-dimethyl-8-ribityllumazine synthase
14508at224756	Complete	NZ_LKAZ01000031.1	13371	13928	-	192.9	145	https://www.orthodb.org/v10?query=14508at224756	Orotate phosphoribosyltransferase
14550at224756	Complete	NZ_LKAZ01000036.1	11222	11809	+	180.6	146	https://www.orthodb.org/v10?query=14550at224756	cobalt-precorrin-7 (C(5))-methyltransferase
14657at224756	Complete	NZ_LKAZ01000058.1	21475	21924	-	201.4	121	https://www.orthodb.org/v10?query=14657at224756	30S ribosomal protein S19e
14670at224756	Complete	NZ_LKAZ01000040.1	56920	57570	+	192.7	177	https://www.orthodb.org/v10?query=14670at224756	phosphate transport system regulatory protein PhoU
14724at224756	Complete	NZ_LKAZ01000057.1	259829	260314	-	164.9	130	https://www.orthodb.org/v10?query=14724at224756	50S ribosomal protein L11
14774at224756	Complete	NZ_LKAZ01000027.1	49467	49853	-	147.3	105	https://www.orthodb.org/v10?query=14774at224756	4Fe-4S dicluster domain-containing protein
14779at224756	Complete	NZ_LKAZ01000042.1	28656	29177	+	192.6	140	https://www.orthodb.org/v10?query=14779at224756	ArsR family transcriptional regulator
14805at224756	Complete	NZ_LKAZ01000057.1	87248	87640	-	135.6	103	https://www.orthodb.org/v10?query=14805at224756	DUF2111 domain-containing protein
14894at224756	Complete	NZ_LKAZ01000054.1	248872	249270	-	183.3	110	https://www.orthodb.org/v10?query=14894at224756	50S ribosomal protein L14
14909at224756	Complete	NZ_LKAZ01000028.1	3226	3900	+	199.5	161	https://www.orthodb.org/v10?query=14909at224756	bifunctional precorrin-2 dehydrogenase/sirohydrochlorin ferrochelatase
15055at224756	Complete	NZ_LKAZ01000057.1	221624	222070	-	146.1	102	https://www.orthodb.org/v10?query=15055at224756	Zn-ribbon containing protein
15058at224756	Complete	NZ_LKAZ01000058.1	18995	19654	-	209.0	183	https://www.orthodb.org/v10?query=15058at224756	Translation initiation factor 6
15076at224756	Complete	NZ_LKAZ01000057.1	260437	260895	-	227.3	133	https://www.orthodb.org/v10?query=15076at224756	transcription elongation factor Spt5
15109at224756	Complete	NZ_LKAZ01000030.1	115751	116152	+	214.1	120	https://www.orthodb.org/v10?query=15109at224756	5-(carboxyamino)imidazole ribonucleotide mutase
15138at224756	Complete	NZ_LKAZ01000027.1	51721	52140	+	223.8	130	https://www.orthodb.org/v10?query=15138at224756	FAD synthase
15282at224756	Complete	NZ_LKAZ01000053.1	2956	3393	+	145.8	109	https://www.orthodb.org/v10?query=15282at224756	RNA-binding protein
15297at224756	Complete	NZ_LKAZ01000048.1	94935	95456	-	200.0	143	https://www.orthodb.org/v10?query=15297at224756	transcriptional regulator
15311at224756	Complete	NZ_LKAZ01000019.1	4832	5272	+	179.6	103	https://www.orthodb.org/v10?query=15311at224756	phosphoribosyl-AMP cyclohydrolase
15348at224756	Complete	NZ_LKAZ01000031.1	13990	14517	-	195.7	143	https://www.orthodb.org/v10?query=15348at224756	CDP-archaeol synthase
15385at224756	Complete	NZ_LKAZ01000054.1	251041	251496	-	172.8	125	https://www.orthodb.org/v10?query=15385at224756	50S ribosomal protein L22
15452at224756	Complete	NZ_LKAZ01000053.1	49297	49638	+	103.9	101	https://www.orthodb.org/v10?query=15452at224756	6-carboxytetrahydropterin synthase QueD
15519at224756	Complete	NZ_LKAZ01000054.1	246733	247125	-	171.7	108	https://www.orthodb.org/v10?query=15519at224756	30S ribosomal protein S8
15521at224756	Fragmented	NZ_LKAZ01000048.1	41538	41825	+	104.5	66	https://www.orthodb.org/v10?query=15521at224756	transcription factor S
15620at224756	Complete	NZ_LKAZ01000048.1	147339	147905	+	292.1	179	https://www.orthodb.org/v10?query=15620at224756	dephospho-CoA kinase
15698at224756	Complete	NZ_LKAZ01000042.1	227278	227826	+	122.4	137	https://www.orthodb.org/v10?query=15698at224756	adenylate kinase
15719at224756	Complete	NZ_LKAZ01000071.1	46653	47195	+	148.1	111	https://www.orthodb.org/v10?query=15719at224756	phosphohydrolase
15728at224756	Complete	NZ_LKAZ01000053.1	161545	162099	-	131.1	136	https://www.orthodb.org/v10?query=15728at224756	RNA 2',3'-cyclic phosphodiesterase
15734at224756	Complete	NZ_LKAZ01000054.1	245293	245745	-	203.8	130	https://www.orthodb.org/v10?query=15734at224756	Ribosomal protein L19/L19e
15809at224756	Complete	NZ_LKAZ01000057.1	334634	335233	-	194.4	164	https://www.orthodb.org/v10?query=15809at224756	methanogenesis marker 17 protein
15828at224756	Complete	NZ_LKAZ01000053.1	96749	97300	-	169.4	146	https://www.orthodb.org/v10?query=15828at224756	V-type ATP synthase subunit E
15879at224756	Complete	NZ_LKAZ01000031.1	47604	47951	-	143.7	97	https://www.orthodb.org/v10?query=15879at224756	Peptidyl-tRNA hydrolase
15880at224756	Complete	NZ_LKAZ01000048.1	58867	59502	-	108.9	91	https://www.orthodb.org/v10?query=15880at224756	Sjogrens syndrome scleroderma autoantigen 1
15893at224756	Complete	NZ_LKAZ01000054.1	77369	77818	+	212.4	135	https://www.orthodb.org/v10?query=15893at224756	Probable transcription termination protein NusA
15915at224756	Complete	NZ_LKAZ01000036.1	52873	53313	+	113.3	102	https://www.orthodb.org/v10?query=15915at224756	archease
15918at224756	Complete	NZ_LKAZ01000054.1	344988	345365	-	159.1	111	https://www.orthodb.org/v10?query=15918at224756	30S ribosomal protein S8e
15950at224756	Complete	NZ_LKAZ01000054.1	244752	245276	-	217.3	154	https://www.orthodb.org/v10?query=15950at224756	50S ribosomal protein L18
15988at224756	Complete	NZ_LKAZ01000028.1	29216	29596	+	157.4	106	https://www.orthodb.org/v10?query=15988at224756	50S ribosomal protein L18e
16032at224756	Complete	NZ_LKAZ01000054.1	154893	155363	-	182.5	122	https://www.orthodb.org/v10?query=16032at224756	phosphopantetheine adenylyltransferase
16233at224756	Complete	NZ_LKAZ01000042.1	194750	195199	-	156.2	111	https://www.orthodb.org/v10?query=16233at224756	Uncharacterised protein family UPF0179
16240at224756	Complete	NZ_LKAZ01000057.1	168833	169300	-	179.7	125	https://www.orthodb.org/v10?query=16240at224756	aspartate carbamoyltransferase regulatory subunit
16256at224756	Complete	NZ_LKAZ01000057.1	325919	326305	-	193.3	117	https://www.orthodb.org/v10?query=16256at224756	Translation initiation factor 5A
16291at224756	Complete	NZ_LKAZ01000042.1	203224	203811	+	133.7	112	https://www.orthodb.org/v10?query=16291at224756	DUF359 domain-containing protein
16305at224756	Complete	NZ_LKAZ01000048.1	32975	33457	+	198.4	130	https://www.orthodb.org/v10?query=16305at224756	pseudouridine synthase
16314at224756	Complete	NZ_LKAZ01000053.1	3570	3953	+	131.2	95	https://www.orthodb.org/v10?query=16314at224756	DUF552 domain-containing protein
16369at224756	Complete	NZ_LKAZ01000057.1	241918	242847	+	309.9	222	https://www.orthodb.org/v10?query=16369at224756	segregation/condensation protein A
16504at224756	Complete	NZ_LKAZ01000054.1	235370	235750	-	181.8	109	https://www.orthodb.org/v10?query=16504at224756	30S ribosomal protein S11
16601at224756	Complete	NZ_LKAZ01000057.1	251435	252046	+	108.3	75	https://www.orthodb.org/v10?query=16601at224756	methylated-DNA--
16848at224756	Complete	NZ_LKAZ01000034.1	8507	8785	-	146.3	85	https://www.orthodb.org/v10?query=16848at224756	50S ribosomal protein L44e
16849at224756	Complete	NZ_LKAZ01000030.1	112485	112844	-	153.0	100	https://www.orthodb.org/v10?query=16849at224756	DUF2073 domain-containing protein
16927at224756	Complete	NZ_LKAZ01000057.1	270378	270932	+	196.6	144	https://www.orthodb.org/v10?query=16927at224756	Probable cobalt-precorrin-6B C(15)-methyltransferase (decarboxylating)
16949at224756	Complete	NZ_LKAZ01000057.1	336994	337440	-	142.7	105	https://www.orthodb.org/v10?query=16949at224756	methanogenesis marker 6 protein
16956at224756	Complete	NZ_LKAZ01000028.1	30043	30447	+	192.1	119	https://www.orthodb.org/v10?query=16956at224756	Ribosomal protein S5 domain 2-type fold
16971at224756	Complete	NZ_LKAZ01000048.1	122756	123742	-	368.2	240	https://www.orthodb.org/v10?query=16971at224756	zinc ABC transporter substrate-binding protein
16989at224756	Complete	NZ_LKAZ01000057.1	231561	232124	-	137.3	128	https://www.orthodb.org/v10?query=16989at224756	BioY family transporter
16990at224756	Complete	NZ_LKAZ01000057.1	391549	391857	+	173.8	90	https://www.orthodb.org/v10?query=16990at224756	Protein translation factor SUI1 homolog
17026at224756	Complete	NZ_LKAZ01000052.1	18760	19044	-	136.1	80	https://www.orthodb.org/v10?query=17026at224756	50S ribosomal protein L37Ae
17080at224756	Complete	NZ_LKAZ01000054.1	181112	181378	+	123.5	70	https://www.orthodb.org/v10?query=17080at224756	Thioredoxin
17086at224756	Complete	NZ_LKAZ01000032.1	2321	2710	-	159.4	97	https://www.orthodb.org/v10?query=17086at224756	DUF555 domain-containing protein
17132at224756	Complete	NZ_LKAZ01000048.1	170696	170974	+	117.7	74	https://www.orthodb.org/v10?query=17132at224756	metal-binding protein
17145at224756	Complete	NZ_LKAZ01000022.1	53603	53965	-	180.9	111	https://www.orthodb.org/v10?query=17145at224756	50S ribosomal protein L7Ae
17163at224756	Complete	NZ_LKAZ01000054.1	249267	249596	-	156.2	93	https://www.orthodb.org/v10?query=17163at224756	30S ribosomal protein S17
17210at224756	Complete	NZ_LKAZ01000046.1	5240	5635	-	149.5	103	https://www.orthodb.org/v10?query=17210at224756	metal-dependent protease of the PAD1/JAB1 superfamily
17218at224756	Complete	NZ_LKAZ01000053.1	95358	95660	-	105.2	77	https://www.orthodb.org/v10?query=17218at224756	V-type ATP synthase subunit F
17220at224756	Complete	NZ_LKAZ01000042.1	202007	202375	+	137.6	106	https://www.orthodb.org/v10?query=17220at224756	DNA-binding protein
17236at224756	Complete	NZ_LKAZ01000048.1	28877	29251	-	88.9	71	https://www.orthodb.org/v10?query=17236at224756	DUF1894 domain-containing protein
17292at224756	Complete	NZ_LKAZ01000054.1	248511	248861	-	158.7	99	https://www.orthodb.org/v10?query=17292at224756	50S ribosomal protein L24
17293at224756	Complete	NZ_LKAZ01000022.1	50179	50586	-	157.9	109	https://www.orthodb.org/v10?query=17293at224756	30S ribosomal protein S6e
17328at224756	Complete	NZ_LKAZ01000036.1	75840	76172	+	110.8	73	https://www.orthodb.org/v10?query=17328at224756	ribonuclease P
17409at224756	Complete	NZ_LKAZ01000057.1	76575	76964	-	115.9	107	https://www.orthodb.org/v10?query=17409at224756	DUF473 domain-containing protein
17454at224756	Complete	NZ_LKAZ01000054.1	82862	83170	+	175.8	91	https://www.orthodb.org/v10?query=17454at224756	Ribosomal protein S10
17551at224756	Complete	NZ_LKAZ01000048.1	37792	38160	-	127.6	84	https://www.orthodb.org/v10?query=17551at224756	Dihydroneopterin aldolase
17553at224756	Complete	NZ_LKAZ01000057.1	186127	186408	+	92.9	75	https://www.orthodb.org/v10?query=17553at224756	Aspartyl/glutamyl-tRNA(Asn/Gln) amidotransferase subunit C
17605at224756	Complete	NZ_LKAZ01000033.1	52560	52913	-	149.2	99	https://www.orthodb.org/v10?query=17605at224756	DNA-directed RNA polymerase subunit F
17682at224756	Complete	NZ_LKAZ01000058.1	19687	19956	-	130.6	75	https://www.orthodb.org/v10?query=17682at224756	50S ribosomal protein L31e
17807at224756	Complete	NZ_LKAZ01000062.1	10180	10437	-	127.4	72	https://www.orthodb.org/v10?query=17807at224756	photosystem reaction center subunit H
17881at224756	Complete	NZ_LKAZ01000046.1	88967	89236	-	122.9	79	https://www.orthodb.org/v10?query=17881at224756	Elongation factor 1-beta
17896at224756	Complete	NZ_LKAZ01000048.1	85969	86220	+	113.4	66	https://www.orthodb.org/v10?query=17896at224756	Glutaredoxin
17988at224756	Complete	NZ_LKAZ01000019.1	470	832	-	108.6	88	https://www.orthodb.org/v10?query=17988at224756	Nascent polypeptide-associated complex protein
18007at224756	Complete	NZ_LKAZ01000036.1	59733	60059	-	125.4	92	https://www.orthodb.org/v10?query=18007at224756	tetrahydromethanopterin S-methyltransferase subunit B
18017at224756	Complete	NZ_LKAZ01000036.1	76307	76618	-	115.4	81	https://www.orthodb.org/v10?query=18017at224756	signal recognition particle protein Srp19
18062at224756	Complete	NZ_LKAZ01000030.1	115444	115731	+	120.7	86	https://www.orthodb.org/v10?query=18062at224756	chorismate mutase
18086at224756	Complete	NZ_LKAZ01000026.1	40462	40929	+	147.5	107	https://www.orthodb.org/v10?query=18086at224756	Peptidyl-prolyl cis-trans isomerase
18093at224756	Fragmented	NZ_LKAZ01000057.1	265373	265702	+	109.4	89	https://www.orthodb.org/v10?query=18093at224756	TIGR00270 family protein
18168at224756	Complete	NZ_LKAZ01000054.1	252661	252909	-	99.0	63	https://www.orthodb.org/v10?query=18168at224756	50S ribosomal protein L23
18210at224756	Complete	NZ_LKAZ01000057.1	160619	160918	+	107.4	84	https://www.orthodb.org/v10?query=18210at224756	ABC transporter permease
18254at224756	Complete	NZ_LKAZ01000033.1	53282	53575	-	172.3	86	https://www.orthodb.org/v10?query=18254at224756	50S ribosomal protein L21e
18283at224756	Complete	NZ_LKAZ01000032.1	2908	3189	-	105.2	78	https://www.orthodb.org/v10?query=18283at224756	DUF357 domain-containing protein
18361at224756	Complete	NZ_LKAZ01000054.1	243220	243642	-	155.9	118	https://www.orthodb.org/v10?query=18361at224756	50S ribosomal protein L15
18409at224756	Complete	NZ_LKAZ01000054.1	77076	77372	+	121.9	77	https://www.orthodb.org/v10?query=18409at224756	50S ribosomal protein L30e
18421at224756	Complete	NZ_LKAZ01000058.1	4476	4793	+	122.8	91	https://www.orthodb.org/v10?query=18421at224756	YggU family protein
18458at224756	Complete	NZ_LKAZ01000053.1	147755	148045	+	90.9	80	https://www.orthodb.org/v10?query=18458at224756	DUF424 domain-containing protein
18633at224756	Complete	NZ_LKAZ01000028.1	42715	42975	+	85.8	70	https://www.orthodb.org/v10?query=18633at224756	H/ACA RNA-protein complex protein Gar1
18635at224756	Complete	NZ_LKAZ01000054.1	249601	249933	-	85.3	70	https://www.orthodb.org/v10?query=18635at224756	ribonuclease P
18639at224756	Complete	NZ_LKAZ01000054.1	69109	69345	+	98.2	63	https://www.orthodb.org/v10?query=18639at224756	DNA-directed RNA polymerase subunit H
18662at224756	Complete	NZ_LKAZ01000027.1	6995	7249	-	71.9	49	https://www.orthodb.org/v10?query=18662at224756	Q12TN3_METBU
18681at224756	Complete	NZ_LKAZ01000054.1	184221	184634	+	123.0	86	https://www.orthodb.org/v10?query=18681at224756	4Fe-4S dicluster domain-containing protein
18710at224756	Complete	NZ_LKAZ01000054.1	165759	166010	-	126.1	79	https://www.orthodb.org/v10?query=18710at224756	photosystem reaction center subunit H
18737at224756	Complete	NZ_LKAZ01000030.1	105430	105744	+	118.0	82	https://www.orthodb.org/v10?query=18737at224756	Phosphoribosyl-ATP pyrophosphatase
18760at224756	Complete	NZ_LKAZ01000053.1	53727	54041	+	106.2	79	https://www.orthodb.org/v10?query=18760at224756	COG4004 family
18854at224756	Missing
18968at224756	Complete	NZ_LKAZ01000054.1	196146	196364	+	107.3	58	https://www.orthodb.org/v10?query=18968at224756	Putative snRNP Sm-like protein
19014at224756	Complete	NZ_LKAZ01000048.1	59764	60036	+	135.3	77	https://www.orthodb.org/v10?query=19014at224756	Uncharacterised protein family UPF0147
19040at224756	Complete	NZ_LKAZ01000022.1	53357	53578	-	141.5	60	https://www.orthodb.org/v10?query=19040at224756	30S ribosomal protein S28e
19077at224756	Complete	NZ_LKAZ01000042.1	198178	198912	+	146.7	133	https://www.orthodb.org/v10?query=19077at224756	stage II sporulation protein M
19102at224756	Missing
19145at224756	Complete	NZ_LKAZ01000057.1	88593	89210	+	227.9	160	https://www.orthodb.org/v10?query=19145at224756	thymidylate kinase
19196at224756	Complete	NZ_LKAZ01000046.1	81751	82125	+	116.9	88	https://www.orthodb.org/v10?query=19196at224756	Winged helix-like DNA-binding domain superfamily
19231at224756	Complete	NZ_LKAZ01000028.1	30452	30640	+	114.1	52	https://www.orthodb.org/v10?query=19231at224756	DNA-directed RNA polymerase subunit N
19244at224756	Complete	NZ_LKAZ01000057.1	36262	37302	-	79.0	147	https://www.orthodb.org/v10?query=19244at224756	ferredoxin
19354at224756	Complete	NZ_LKAZ01000067.1	2844	3161	+	105.1	81	https://www.orthodb.org/v10?query=19354at224756	divalent-cation tolerance protein CutA
19364at224756	Complete	NZ_LKAZ01000058.1	21011	21370	-	110.1	93	https://www.orthodb.org/v10?query=19364at224756	PDCD5-like
19471at224756	Complete	NZ_LKAZ01000041.1	40181	40459	-	95.5	69	https://www.orthodb.org/v10?query=19471at224756	DNA-directed RNA polymerase subunit L
19532at224756	Complete	NZ_LKAZ01000046.1	81475	81699	+	124.1	67	https://www.orthodb.org/v10?query=19532at224756	LSM domain-containing protein
19548at224756	Complete	NZ_LKAZ01000054.1	247135	247287	-	104.2	42	https://www.orthodb.org/v10?query=19548at224756	30S ribosomal protein S14
19551at224756	Missing
19721at224756	Complete	NZ_LKAZ01000028.1	11617	11922	+	126.9	79	https://www.orthodb.org/v10?query=19721at224756	Winged helix-like DNA-binding domain superfamily
19738at224756	Complete	NZ_LKAZ01000046.1	4159	4425	+	76.7	54	https://www.orthodb.org/v10?query=19738at224756	CTAG/Pcc1 family
19796at224756	Complete	NZ_LKAZ01000053.1	52911	53219	-	96.5	66	https://www.orthodb.org/v10?query=19796at224756	A0A1G8YLC6_9EURY
19811at224756	Complete	NZ_LKAZ01000034.1	8312	8500	-	101.4	49	https://www.orthodb.org/v10?query=19811at224756	30S ribosomal protein S27e
19813at224756	Complete	NZ_LKAZ01000042.1	203792	204097	+	125.2	81	https://www.orthodb.org/v10?query=19813at224756	30S ribosomal protein S24e
19859at224756	Complete	NZ_LKAZ01000054.1	196517	196687	+	87.7	44	https://www.orthodb.org/v10?query=19859at224756	50S ribosomal protein L37e
19887at224756	Complete	NZ_LKAZ01000054.1	249923	250126	-	106.9	57	https://www.orthodb.org/v10?query=19887at224756	50S ribosomal protein L29
19903at224756	Complete	NZ_LKAZ01000042.1	203037	203222	+	107.3	55	https://www.orthodb.org/v10?query=19903at224756	Transcription elongation factor Spt4
19951at224756	Complete	NZ_LKAZ01000042.1	204113	204262	+	88.5	39	https://www.orthodb.org/v10?query=19951at224756	30S ribosomal protein S27ae
19990at224756	Complete	NZ_LKAZ01000058.1	18766	18942	-	93.4	48	https://www.orthodb.org/v10?query=19990at224756	50S ribosomal protein L18Ae
20000at224756	Complete	NZ_LKAZ01000052.1	18602	18739	-	98.8	41	https://www.orthodb.org/v10?query=20000at224756	DNA-directed RNA polymerase subunit P
20032at224756	Complete	NZ_LKAZ01000057.1	315703	315852	-	96.5	43	https://www.orthodb.org/v10?query=20032at224756	Ribosomal protein L40e
20063at224756	Complete	NZ_LKAZ01000057.1	257545	257859	-	74.8	83	https://www.orthodb.org/v10?query=20063at224756	50S ribosomal protein L12
20087at224756	Complete	NZ_LKAZ01000028.1	30829	31011	+	89.4	45	https://www.orthodb.org/v10?query=20087at224756	DNA-directed RNA polymerase subunit K
20134at224756	Missing
20137at224756	Missing
20330at224756	Complete	NZ_LKAZ01000057.1	161358	161552	+	112.4	55	https://www.orthodb.org/v10?query=20330at224756	30S ribosomal protein S17e
